[gd_scene load_steps=6 format=2]

[ext_resource path="res://World/characters/NPCs/Bush/Bug/Bug.gd" type="Script" id=1]
[ext_resource path="res://World/characters/NPCs/Bush/Bug/fly_idle.png" type="Texture" id=2]
[ext_resource path="res://World/characters/NPCs/Bush/Bug/Interact.gd" type="Script" id=3]

[sub_resource type="Animation" id=1]

resource_name = "idle"
length = 3.0
loop = false
step = 0.1
tracks/0/type = "value"
tracks/0/path = NodePath(".:frame")
tracks/0/interp = 1
tracks/0/loop_wrap = true
tracks/0/imported = false
tracks/0/enabled = true
tracks/0/keys = {
"times": PoolRealArray( 0.1, 0.2, 0.3, 0.4, 0.5, 0.6, 0.7, 0.8, 0.9, 1, 1.1, 1.2, 1.3, 1.4, 1.5, 1.6, 1.7, 1.8, 1.9, 2, 2.1, 2.2, 2.3, 2.4, 2.5, 2.6, 2.7, 2.8, 2.9, 3 ),
"transitions": PoolRealArray( 1, 1, 1, 1, 1, 1, 1, 1, 1, 1, 1, 1, 1, 1, 1, 1, 1, 1, 1, 1, 1, 1, 1, 1, 1, 1, 1, 1, 1, 1 ),
"update": 1,
"values": [ 1, 2, 3, 4, 5, 6, 7, 8, 9, 10, 11, 12, 13, 14, 15, 0, 1, 2, 3, 4, 5, 6, 7, 8, 9, 10, 11, 12, 13, 14 ]
}
tracks/1/type = "value"
tracks/1/path = NodePath(".:position")
tracks/1/interp = 1
tracks/1/loop_wrap = true
tracks/1/imported = false
tracks/1/enabled = true
tracks/1/keys = {
"times": PoolRealArray( 0, 1.5, 3 ),
"transitions": PoolRealArray( 1, 1, 1 ),
"update": 0,
"values": [ Vector2( 0, 0 ), Vector2( 27, -20 ), Vector2( 54, 0 ) ]
}

[sub_resource type="RectangleShape2D" id=2]

custom_solver_bias = 0.0
extents = Vector2( 10, 4.7077 )

[node name="KinematicBody2D" type="KinematicBody2D" index="0"]

z_index = 1
input_pickable = false
collision_layer = 1
collision_mask = 0
collision/safe_margin = 0.08
script = ExtResource( 1 )
_sections_unfolded = [ "Collision", "Transform", "Z Index", "collision" ]

[node name="Sprite" type="Sprite" parent="." index="0"]

scale = Vector2( 0.2, 0.2 )
z_index = 1
texture = ExtResource( 2 )
hframes = 16
frame = 1
_sections_unfolded = [ "Transform" ]

[node name="AnimationPlayer" type="AnimationPlayer" parent="Sprite" index="0"]

root_node = NodePath("..")
autoplay = "idle"
playback_process_mode = 1
playback_default_blend_time = 0.0
playback_speed = 1.0
anims/idle = SubResource( 1 )
blend_times = [  ]

[node name="Interact" type="Control" parent="." index="1"]

anchor_left = 0.0
anchor_top = 0.0
anchor_right = 0.0
anchor_bottom = 0.0
margin_right = 40.0
margin_bottom = 40.0
rect_pivot_offset = Vector2( 0, 0 )
rect_clip_content = false
mouse_filter = 0
mouse_default_cursor_shape = 0
size_flags_horizontal = 1
size_flags_vertical = 1
script = ExtResource( 3 )

[node name="CollisionPolygon2D" type="CollisionShape2D" parent="." index="2"]

position = Vector2( 31.8547, -4.11638 )
scale = Vector2( 2.82152, 2.42047 )
shape = SubResource( 2 )
_sections_unfolded = [ "Transform" ]


