[gd_scene load_steps=2 format=2]

[ext_resource path="res://World/gotitem_sfx.wav" type="AudioStream" id=1]

[node name="SFX" type="AudioStreamPlayer"]

stream = ExtResource( 1 )
volume_db = 0.0
pitch_scale = 1.0
autoplay = true
mix_target = 0
bus = "SFX"

[connection signal="finished" from="." to="." method="queue_free"]


