[gd_scene load_steps=2 format=2]

[ext_resource path="res://World/map/TileMap.tscn" type="PackedScene" id=1]

[node name="TileMap" index="0" instance=ExtResource( 1 )]

cell_tile_origin = 0
tile_data = PoolIntArray( -1376296, 0, 8, -1376295, 0, 8, -1376294, 0, 8, -1376293, 0, 8, -1376292, 0, 8, -1376291, 0, 8, -1376290, 0, 8, -1376289, 0, 8, -1376288, 0, 8, -1376287, 0, 8, -1376286, 0, 8, -1376285, 0, 8, -1376284, 0, 8, -1376283, 0, 8, -1376282, 0, 8, -1376281, 0, 8, -1376280, 0, 8, -1376279, 0, 8, -1376278, 0, 8, -1376277, 0, 8, -1376276, 0, 8, -1376275, 0, 8, -1376274, 0, 8, -1376273, 0, 8, -1376272, 0, 8, -1376271, 0, 8, -1376270, 0, 8, -1376269, 0, 8, -1376268, 0, 8, -1376267, 0, 8, -1376266, 0, 8, -1376265, 0, 8, -1376264, 0, 8, -1376263, 0, 8, -1376262, 0, 8, -1376261, 0, 8, -1376260, 0, 8, -1376259, 0, 8, -1376258, 0, 8, -1376257, 0, 8, -1441792, 0, 8, -1441791, 0, 8, -1441790, 0, 8, -1441789, 0, 8, -1441788, 0, 8, -1441787, 0, 8, -1441786, 0, 8, -1441785, 0, 8, -1441784, 0, 8, -1441783, 0, 8, -1441782, 0, 8, -1441781, 0, 8, -1441780, 0, 8, -1441779, 0, 8, -1441778, 0, 8, -1441777, 0, 8, -1441776, 0, 8, -1441775, 0, 8, -1441774, 0, 8, -1441773, 0, 8, -1441772, 0, 8, -1441771, 0, 8, -1441770, 0, 8, -1441769, 0, 8, -1441768, 0, 8, -1441767, 0, 8, -1441766, 0, 8, -1441765, 0, 8, -1441764, 0, 8, -1441763, 0, 8, -1441762, 0, 8, -1441761, 0, 8, -1441760, 0, 8, -1441759, 0, 8, -1441758, 0, 8, -1441757, 0, 8, -1441756, 0, 8, -1441755, 0, 8, -1441754, 0, 8, -1441753, 0, 8, -1441752, 0, 8, -1441751, 0, 8, -1441750, 0, 8, -1441749, 0, 8, -1441748, 0, 8, -1441747, 0, 8, -1441746, 0, 8, -1441745, 0, 8, -1441744, 0, 8, -1441743, 0, 8, -1441742, 0, 8, -1441741, 0, 8, -1441740, 0, 8, -1441739, 0, 8, -1441738, 0, 8, -1441737, 0, 8, -1310760, 0, 8, -1310759, 0, 9, -1310758, 0, 8, -1310757, 0, 8, -1310756, 0, 9, -1310755, 0, 9, -1310754, 0, 8, -1310753, 0, 9, -1310752, 0, 8, -1310751, 0, 9, -1310750, 0, 9, -1310749, 0, 9, -1310748, 0, 8, -1310747, 0, 9, -1310746, 0, 8, -1310745, 0, 8, -1310744, 0, 9, -1310743, 0, 9, -1310742, 0, 8, -1310741, 0, 9, -1310740, 0, 9, -1310739, 0, 8, -1310738, 0, 9, -1310737, 0, 9, -1310736, 0, 8, -1310735, 0, 8, -1310734, 0, 8, -1310733, 0, 8, -1310732, 0, 9, -1310731, 0, 8, -1310730, 0, 8, -1310729, 0, 9, -1310728, 0, 9, -1310727, 0, 9, -1310726, 0, 9, -1310725, 0, 8, -1310724, 0, 8, -1310723, 0, 9, -1310722, 0, 9, -1310721, 0, 9, -1376256, 0, 9, -1376255, 0, 8, -1376254, 0, 9, -1376253, 0, 9, -1376252, 0, 9, -1376251, 0, 9, -1376250, 0, 8, -1376249, 0, 9, -1376248, 0, 8, -1376247, 0, 8, -1376246, 0, 9, -1376245, 0, 9, -1376244, 0, 8, -1376243, 0, 9, -1376242, 0, 9, -1376241, 0, 9, -1376240, 0, 9, -1376239, 0, 8, -1376238, 0, 8, -1376237, 0, 9, -1376236, 0, 9, -1376235, 0, 8, -1376234, 0, 9, -1376233, 0, 8, -1376232, 0, 9, -1376231, 0, 9, -1376230, 0, 9, -1376229, 0, 9, -1376228, 0, 8, -1376227, 0, 9, -1376226, 0, 9, -1376225, 0, 8, -1376224, 0, 8, -1376223, 0, 8, -1376222, 0, 9, -1376221, 0, 9, -1376220, 0, 9, -1376219, 0, 8, -1376218, 0, 9, -1376217, 0, 8, -1376216, 0, 9, -1376215, 0, 9, -1376214, 0, 8, -1376213, 0, 9, -1376212, 0, 9, -1376211, 0, 9, -1376210, 0, 9, -1376209, 0, 8, -1376208, 0, 8, -1376207, 0, 9, -1376206, 0, 8, -1376205, 0, 8, -1376204, 0, 9, -1376203, 0, 8, -1376202, 0, 8, -1376201, 0, 8, -1245224, 0, 8, -1245223, 0, 9, -1245222, 0, 8, -1245221, 0, 8, -1245220, 0, 8, -1245219, 0, 9, -1245218, 0, 9, -1245217, 0, 9, -1245216, 0, 9, -1245215, 0, 9, -1245214, 0, 9, -1245213, 0, 8, -1245212, 0, 9, -1245211, 0, 9, -1245210, 0, 9, -1245209, 0, 9, -1245208, 0, 9, -1245207, 0, 9, -1245206, 0, 8, -1245205, 0, 9, -1245204, 0, 8, -1245203, 0, 8, -1245202, 0, 8, -1245201, 0, 8, -1245200, 0, 8, -1245199, 0, 9, -1245198, 0, 9, -1245197, 0, 8, -1245196, 0, 8, -1245195, 0, 8, -1245194, 0, 8, -1245193, 0, 9, -1245192, 0, 9, -1245191, 0, 8, -1245190, 0, 8, -1245189, 0, 8, -1245188, 0, 8, -1245187, 0, 9, -1245186, 0, 9, -1245185, 0, 9, -1310720, 0, 8, -1310719, 0, 8, -1310718, 0, 8, -1310717, 0, 9, -1310716, 0, 9, -1310715, 0, 8, -1310714, 0, 8, -1310713, 0, 9, -1310712, 0, 8, -1310711, 0, 9, -1310710, 0, 9, -1310709, 0, 9, -1310708, 0, 8, -1310707, 0, 8, -1310706, 0, 8, -1310705, 0, 9, -1310704, 0, 8, -1310703, 0, 9, -1310702, 0, 9, -1310701, 0, 8, -1310700, 0, 8, -1310699, 0, 9, -1310698, 0, 8, -1310697, 0, 9, -1310696, 0, 9, -1310695, 0, 8, -1310694, 0, 8, -1310693, 0, 9, -1310692, 0, 8, -1310691, 0, 9, -1310690, 0, 9, -1310689, 0, 8, -1310688, 0, 9, -1310687, 0, 9, -1310686, 0, 8, -1310685, 0, 9, -1310684, 0, 8, -1310683, 0, 9, -1310682, 0, 9, -1310681, 0, 8, -1310680, 0, 8, -1310679, 0, 9, -1310678, 0, 8, -1310677, 0, 8, -1310676, 0, 9, -1310675, 0, 9, -1310674, 0, 9, -1310673, 0, 9, -1310672, 0, 8, -1310671, 0, 8, -1310670, 0, 8, -1310669, 0, 8, -1310668, 0, 9, -1310667, 0, 9, -1310666, 0, 8, -1310665, 0, 8, -1179688, 0, 8, -1179687, 0, 9, -1179686, 0, 8, -1179685, 0, 9, -1179684, 0, 9, -1179683, 0, 9, -1179682, 0, 8, -1179681, 0, 9, -1179680, 0, 8, -1179679, 0, 8, -1179678, 0, 8, -1179677, 0, 9, -1179676, 0, 9, -1179675, 0, 9, -1179674, 0, 8, -1179673, 0, 9, -1179672, 0, 8, -1179671, 0, 8, -1179670, 0, 8, -1179669, 0, 9, -1179668, 0, 8, -1179667, 0, 9, -1179666, 0, 9, -1179665, 0, 8, -1179664, 0, 8, -1179663, 0, 9, -1179662, 0, 9, -1179661, 0, 9, -1179660, 0, 8, -1179659, 0, 9, -1179658, 0, 8, -1179657, 0, 8, -1179656, 0, 8, -1179655, 0, 8, -1179654, 0, 8, -1179653, 0, 8, -1179652, 0, 9, -1179651, 0, 8, -1179650, 0, 8, -1179649, 0, 8, -1245184, 0, 8, -1245183, 0, 9, -1245182, 0, 9, -1245181, 0, 8, -1245180, 0, 8, -1245179, 0, 8, -1245178, 0, 9, -1245177, 0, 9, -1245176, 0, 8, -1245175, 0, 8, -1245174, 0, 9, -1245173, 0, 9, -1245172, 0, 9, -1245171, 0, 8, -1245170, 0, 9, -1245169, 0, 9, -1245168, 0, 8, -1245167, 0, 8, -1245166, 0, 8, -1245165, 0, 9, -1245164, 0, 9, -1245163, 0, 9, -1245162, 0, 8, -1245161, 0, 9, -1245160, 0, 9, -1245159, 0, 9, -1245158, 0, 9, -1245157, 0, 8, -1245156, 0, 9, -1245155, 0, 8, -1245154, 0, 9, -1245153, 0, 8, -1245152, 0, 9, -1245151, 0, 9, -1245150, 0, 8, -1245149, 0, 9, -1245148, 0, 8, -1245147, 0, 9, -1245146, 0, 9, -1245145, 0, 8, -1245144, 0, 9, -1245143, 0, 9, -1245142, 0, 9, -1245141, 0, 8, -1245140, 0, 9, -1245139, 0, 8, -1245138, 0, 9, -1245137, 0, 8, -1245136, 0, 9, -1245135, 0, 8, -1245134, 0, 9, -1245133, 0, 8, -1245132, 0, 8, -1245131, 0, 9, -1245130, 0, 8, -1245129, 0, 8, -1114152, 0, 8, -1114151, 0, 9, -1114150, 0, 9, -1114149, 0, 9, -1114148, 0, 9, -1114147, 0, 8, -1114146, 0, 9, -1114145, 0, 8, -1114144, 0, 8, -1114143, 0, 8, -1114142, 0, 9, -1114141, 0, 9, -1114140, 0, 8, -1114139, 0, 8, -1114138, 0, 9, -1114137, 0, 9, -1114136, 0, 9, -1114135, 0, 8, -1114134, 0, 8, -1114133, 0, 8, -1114132, 0, 8, -1114131, 0, 9, -1114130, 0, 9, -1114129, 0, 8, -1114128, 0, 8, -1114127, 0, 9, -1114126, 0, 8, -1114125, 0, 9, -1114124, 0, 8, -1114123, 0, 8, -1114122, 0, 9, -1114121, 0, 8, -1114120, 6, 393227, -1114119, 6, 393228, -1114118, 6, 393229, -1114117, 0, 8, -1114116, 0, 9, -1114115, 0, 9, -1114114, 0, 9, -1114113, 0, 8, -1179648, 0, 8, -1179647, 0, 8, -1179646, 0, 9, -1179645, 0, 9, -1179644, 0, 9, -1179643, 0, 8, -1179642, 0, 9, -1179641, 0, 9, -1179640, 0, 9, -1179639, 0, 9, -1179638, 0, 8, -1179637, 0, 9, -1179636, 0, 8, -1179635, 0, 9, -1179634, 0, 8, -1179633, 0, 9, -1179632, 0, 9, -1179631, 0, 9, -1179630, 0, 9, -1179629, 0, 8, -1179628, 0, 8, -1179627, 0, 9, -1179626, 0, 8, -1179625, 0, 8, -1179624, 0, 9, -1179623, 0, 8, -1179622, 0, 9, -1179621, 0, 8, -1179620, 0, 8, -1179619, 0, 8, -1179618, 0, 9, -1179617, 0, 9, -1179616, 0, 8, -1179615, 0, 8, -1179614, 0, 9, -1179613, 0, 9, -1179612, 0, 8, -1179611, 0, 8, -1179610, 0, 9, -1179609, 0, 9, -1179608, 0, 8, -1179607, 0, 8, -1179606, 0, 8, -1179605, 0, 9, -1179604, 0, 8, -1179603, 0, 9, -1179602, 0, 9, -1179601, 0, 8, -1179600, 0, 9, -1179599, 0, 8, -1179598, 0, 9, -1179597, 0, 8, -1179596, 0, 8, -1179595, 0, 9, -1179594, 0, 9, -1179593, 0, 8, -1048616, 0, 8, -1048615, 0, 8, -1048614, 0, 9, -1048613, 0, 8, -1048612, 0, 8, -1048611, 0, 8, -1048610, 0, 8, -1048609, 0, 8, -1048608, 0, 8, -1048607, 0, 8, -1048606, 0, 8, -1048605, 0, 8, -1048604, 0, 9, -1048603, 0, 9, -1048602, 0, 8, -1048601, 0, 9, -1048600, 0, 9, -1048599, 0, 8, -1048598, 0, 9, -1048597, 0, 8, -1048596, 0, 9, -1048595, 0, 9, -1048594, 0, 8, -1048593, 0, 9, -1048592, 0, 9, -1048591, 0, 8, -1048590, 0, 9, -1048589, 0, 8, -1048588, 0, 9, -1048587, 0, 9, -1048586, 0, 8, -1048585, 0, 8, -1048584, 6, 458763, -1048583, 6, 458764, -1048582, 6, 458765, -1048581, 0, 8, -1048580, 0, 9, -1048579, 0, 9, -1048578, 0, 9, -1048577, 0, 9, -1114112, 0, 8, -1114111, 0, 9, -1114110, 0, 8, -1114109, 0, 8, -1114108, 0, 9, -1114107, 0, 8, -1114106, 0, 8, -1114105, 0, 8, -1114104, 0, 8, -1114103, 0, 8, -1114102, 0, 9, -1114101, 0, 9, -1114100, 0, 9, -1114099, 0, 9, -1114098, 0, 9, -1114097, 0, 9, -1114096, 0, 8, -1114095, 0, 8, -1114094, 0, 8, -1114093, 0, 8, -1114092, 0, 8, -1114091, 0, 9, -1114090, 0, 8, -1114089, 0, 9, -1114088, 0, 9, -1114087, 0, 8, -1114086, 0, 9, -1114085, 0, 9, -1114084, 0, 8, -1114083, 0, 9, -1114082, 0, 9, -1114081, 0, 9, -1114080, 0, 8, -1114079, 0, 9, -1114078, 0, 8, -1114077, 0, 8, -1114076, 0, 8, -1114075, 0, 9, -1114074, 0, 9, -1114073, 0, 9, -1114072, 0, 8, -1114071, 0, 8, -1114070, 0, 9, -1114069, 0, 8, -1114068, 0, 9, -1114067, 0, 8, -1114066, 0, 9, -1114065, 0, 9, -1114064, 0, 8, -1114063, 0, 9, -1114062, 0, 9, -1114061, 0, 8, -1114060, 0, 9, -1114059, 0, 9, -1114058, 0, 9, -1114057, 0, 8, -983080, 0, 8, -983079, 0, 8, -983078, 0, 9, -983077, 0, 8, -983076, 0, 8, -983075, 0, 8, -983074, 0, 9, -983073, 0, 8, -983072, 0, 9, -983071, 0, 8, -983070, 0, 8, -983069, 0, 8, -983068, 0, 9, -983067, 0, 9, -983066, 0, 8, -983065, 0, 8, -983064, 0, 9, -983063, 0, 9, -983062, 0, 9, -983061, 0, 9, -983060, 0, 9, -983059, 0, 9, -983058, 0, 9, -983057, 0, 8, -983056, 0, 8, -983055, 0, 9, -983054, 0, 8, -983053, 0, 9, -983052, 0, 8, -983051, 0, 8, -983050, 0, 9, -983049, 0, 8, -983048, 6, 458763, -983047, 6, 458764, -983046, 6, 458765, -983045, 0, 8, -983044, 0, 8, -983043, 0, 8, -983042, 0, 8, -983041, 0, 9, -1048576, 0, 9, -1048575, 0, 8, -1048574, 0, 9, -1048573, 0, 9, -1048572, 0, 8, -1048571, 0, 9, -1048570, 0, 8, -1048569, 0, 8, -1048568, 0, 8, -1048567, 0, 9, -1048566, 0, 8, -1048565, 0, 9, -1048564, 0, 9, -1048563, 0, 8, -1048562, 0, 8, -1048561, 0, 8, -1048560, 0, 8, -1048559, 0, 8, -1048558, 0, 9, -1048557, 0, 9, -1048556, 0, 9, -1048555, 0, 8, -1048554, 0, 9, -1048553, 0, 9, -1048552, 0, 8, -1048551, 0, 8, -1048550, 0, 8, -1048549, 0, 8, -1048548, 0, 8, -1048547, 0, 9, -1048546, 0, 9, -1048545, 0, 9, -1048544, 0, 9, -1048543, 0, 9, -1048542, 0, 9, -1048541, 0, 9, -1048540, 0, 8, -1048539, 0, 8, -1048538, 0, 9, -1048537, 0, 8, -1048536, 0, 8, -1048535, 0, 9, -1048534, 0, 8, -1048533, 0, 9, -1048532, 0, 8, -1048531, 0, 9, -1048530, 0, 8, -1048529, 0, 9, -1048528, 0, 9, -1048527, 0, 9, -1048526, 0, 8, -1048525, 0, 8, -1048524, 0, 8, -1048523, 0, 9, -1048522, 0, 8, -1048521, 0, 8, -917544, 0, 8, -917543, 0, 9, -917542, 0, 8, -917541, 0, 9, -917540, 0, 9, -917539, 0, 9, -917538, 0, 8, -917537, 0, 8, -917536, 0, 9, -917535, 0, 9, -917534, 0, 9, -917533, 0, 9, -917532, 0, 8, -917531, 0, 8, -917530, 0, 9, -917529, 0, 9, -917528, 0, 9, -917527, 0, 9, -917526, 0, 9, -917525, 0, 9, -917524, 0, 8, -917523, 0, 9, -917522, 0, 8, -917521, 0, 8, -917520, 0, 9, -917519, 0, 8, -917518, 0, 9, -917517, 0, 8, -917516, 0, 8, -917515, 0, 9, -917514, 0, 8, -917513, 0, 8, -917512, 6, 458763, -917511, 6, 458764, -917510, 6, 458765, -917509, 0, 8, -917508, 0, 8, -917507, 0, 8, -917506, 0, 8, -917505, 0, 9, -983040, 0, 9, -983039, 0, 8, -983038, 0, 9, -983037, 0, 9, -983036, 0, 8, -983035, 0, 8, -983034, 0, 8, -983033, 0, 8, -983032, 0, 9, -983031, 0, 9, -983030, 0, 8, -983029, 0, 8, -983028, 0, 9, -983027, 0, 9, -983026, 0, 8, -983025, 0, 8, -983024, 0, 8, -983023, 0, 9, -983022, 0, 8, -983021, 0, 9, -983020, 0, 9, -983019, 0, 9, -983018, 0, 8, -983017, 0, 8, -983016, 0, 8, -983015, 1, 65544, -983014, 1, 196619, -983013, 0, 8, -983012, 0, 9, -983011, 0, 8, -983010, 0, 8, -983009, 0, 8, -983008, 0, 8, -983007, 0, 9, -983006, 0, 8, -983005, 0, 9, -983004, 0, 9, -983003, 0, 9, -983002, 0, 8, -983001, 0, 8, -983000, 0, 8, -982999, 0, 9, -982998, 0, 9, -982997, 0, 9, -982996, 0, 9, -982995, 0, 9, -982994, 0, 9, -982993, 0, 8, -982992, 0, 8, -982991, 0, 9, -982990, 0, 9, -982989, 0, 9, -982988, 0, 8, -982987, 0, 9, -982986, 0, 9, -982985, 0, 8, -852008, 0, 8, -852007, 0, 8, -852006, 0, 8, -852005, 0, 9, -852004, 0, 8, -852003, 0, 9, -852002, 0, 8, -852001, 0, 8, -852000, 0, 9, -851999, 0, 8, -851998, 0, 8, -851997, 0, 9, -851996, 0, 8, -851995, 0, 8, -851994, 0, 9, -851993, 0, 9, -851992, 0, 9, -851991, 0, 9, -851990, 0, 9, -851989, 0, 9, -851988, 0, 8, -851987, 0, 9, -851986, 0, 9, -851985, 0, 8, -851984, 0, 9, -851983, 0, 8, -851982, 0, 8, -851981, 0, 9, -851980, 0, 9, -851979, 0, 9, -851978, 0, 9, -851977, 0, 8, -851976, 6, 458763, -851975, 6, 458764, -851974, 6, 458765, -851973, 0, 8, -851972, 0, 8, -851971, 0, 8, -851970, 0, 8, -851969, 0, 8, -917504, 0, 8, -917503, 0, 9, -917502, 0, 8, -917501, 0, 9, -917500, 0, 8, -917499, 0, 9, -917498, 0, 8, -917497, 0, 8, -917496, 0, 9, -917495, 0, 9, -917494, 0, 9, -917493, 0, 8, -917492, 0, 9, -917491, 0, 8, -917490, 0, 9, -917489, 0, 9, -917488, 0, 9, -917487, 0, 9, -917486, 0, 8, -917485, 0, 9, -917484, 0, 8, -917483, 0, 8, -917482, 0, 9, -917481, 0, 9, -917480, 0, 8, -917479, 1, 131080, -917478, 1, 131082, -917477, 0, 8, -917476, 0, 8, -917475, 0, 8, -917474, 0, 8, -917473, 0, 9, -917472, 0, 8, -917471, 0, 9, -917470, 0, 8, -917469, 0, 9, -917468, 0, 8, -917467, 0, 8, -917466, 0, 9, -917465, 0, 8, -917464, 0, 8, -917463, 0, 9, -917462, 0, 9, -917461, 0, 8, -917460, 0, 8, -917459, 0, 9, -917458, 0, 9, -917457, 0, 8, -917456, 0, 8, -917455, 0, 8, -917454, 0, 8, -917453, 0, 8, -917452, 0, 9, -917451, 0, 8, -917450, 0, 9, -917449, 0, 8, -786472, 0, 8, -786471, 0, 8, -786470, 0, 9, -786469, 0, 9, -786468, 0, 8, -786467, 0, 8, -786466, 0, 8, -786465, 0, 9, -786464, 0, 9, -786463, 0, 8, -786462, 0, 8, -786461, 0, 8, -786460, 0, 8, -786459, 0, 8, -786458, 0, 9, -786457, 0, 9, -786456, 0, 9, -786455, 0, 8, -786454, 0, 8, -786453, 0, 8, -786452, 0, 8, -786451, 0, 9, -786450, 0, 8, -786449, 0, 8, -786448, 0, 9, -786447, 0, 9, -786446, 0, 9, -786445, 0, 8, -786444, 0, 9, -786443, 0, 8, -786442, 0, 8, -786441, 0, 8, -786440, 6, 458763, -786439, 6, 458764, -786438, 6, 458765, -786437, 0, 8, -786436, 0, 9, -786435, 0, 9, -786434, 0, 9, -786433, 0, 8, -851968, 0, 8, -851967, 0, 8, -851966, 0, 9, -851965, 0, 9, -851964, 0, 9, -851963, 0, 9, -851962, 0, 8, -851961, 0, 8, -851960, 0, 8, -851959, 0, 9, -851958, 0, 9, -851957, 0, 9, -851956, 0, 9, -851955, 0, 9, -851954, 0, 9, -851953, 0, 8, -851952, 0, 9, -851951, 0, 9, -851950, 0, 8, -851949, 0, 8, -851948, 0, 9, -851947, 0, 9, -851946, 0, 9, -851945, 0, 9, -851944, 0, 8, -851943, 1, 131080, -851942, 1, 131082, -851941, 0, 8, -851940, 0, 8, -851939, 0, 8, -851938, 0, 9, -851937, 0, 8, -851936, 0, 8, -851935, 0, 9, -851934, 0, 9, -851933, 0, 9, -851932, 0, 8, -851931, 0, 9, -851930, 0, 9, -851929, 0, 9, -851928, 0, 8, -851927, 0, 9, -851926, 0, 8, -851925, 0, 8, -851924, 0, 9, -851923, 0, 9, -851922, 0, 8, -851921, 0, 9, -851920, 0, 9, -851919, 0, 8, -851918, 0, 9, -851917, 0, 8, -851916, 0, 9, -851915, 0, 8, -851914, 0, 9, -851913, 0, 8, -720936, 0, 8, -720935, 0, 9, -720934, 0, 8, -720933, 0, 8, -720932, 0, 8, -720931, 0, 8, -720930, 0, 9, -720929, 0, 8, -720928, 0, 8, -720927, 0, 8, -720926, 0, 8, -720925, 0, 8, -720924, 0, 8, -720923, 0, 9, -720922, 0, 8, -720921, 0, 9, -720920, 0, 8, -720919, 0, 9, -720918, 0, 9, -720917, 0, 8, -720916, 0, 9, -720915, 0, 8, -720914, 0, 8, -720913, 0, 9, -720912, 0, 9, -720911, 0, 8, -720910, 0, 8, -720909, 0, 8, -720908, 0, 8, -720907, 0, 8, -720906, 0, 8, -720905, 0, 8, -720904, 6, 458763, -720903, 6, 458764, -720902, 6, 458765, -720901, 0, 8, -720900, 0, 8, -720899, 0, 8, -720898, 0, 9, -720897, 0, 9, -786432, 0, 8, -786431, 0, 8, -786430, 0, 8, -786429, 0, 9, -786428, 0, 8, -786427, 0, 9, -786426, 0, 8, -786425, 0, 9, -786424, 0, 8, -786423, 0, 9, -786422, 0, 8, -786421, 0, 8, -786420, 0, 9, -786419, 0, 9, -786418, 0, 8, -786417, 0, 8, -786416, 0, 9, -786415, 0, 8, -786414, 0, 8, -786413, 0, 8, -786412, 0, 8, -786411, 0, 8, -786410, 0, 8, -786409, 0, 8, -786408, 0, 8, -786407, 1, 131080, -786406, 1, 131082, -786405, 0, 8, -786404, 0, 8, -786403, 0, 8, -786402, 0, 8, -786401, 0, 8, -786400, 0, 8, -786399, 0, 8, -786398, 0, 8, -786397, 0, 8, -786396, 0, 9, -786395, 0, 8, -786394, 0, 9, -786393, 0, 9, -786392, 0, 9, -786391, 0, 8, -786390, 0, 8, -786389, 0, 9, -786388, 0, 8, -786387, 0, 9, -786386, 0, 9, -786385, 0, 9, -786384, 0, 9, -786383, 0, 8, -786382, 0, 8, -786381, 0, 8, -786380, 0, 9, -786379, 0, 9, -786378, 0, 8, -786377, 0, 8, -655400, 0, 8, -655399, 0, 8, -655398, 0, 8, -655397, 0, 9, -655396, 0, 8, -655395, 0, 8, -655394, 0, 9, -655393, 0, 9, -655392, 0, 9, -655391, 0, 8, -655390, 0, 8, -655389, 0, 8, -655388, 0, 9, -655387, 0, 9, -655386, 0, 8, -655385, 0, 8, -655384, 0, 8, -655383, 0, 8, -655382, 0, 8, -655381, 0, 9, -655380, 0, 8, -655379, 0, 8, -655378, 0, 9, -655377, 0, 8, -655376, 0, 8, -655375, 0, 9, -655374, 0, 9, -655373, 0, 8, -655372, 0, 8, -655371, 6, 393227, -655370, 6, 393228, -655369, 6, 393228, -655368, 6, 458766, -655367, 6, 458764, -655366, 6, 458765, -655365, 0, 8, -655364, 0, 8, -655363, 0, 9, -655362, 0, 8, -655361, 0, 9, -720896, 0, 9, -720895, 0, 9, -720894, 0, 9, -720893, 0, 8, -720892, 0, 8, -720891, 0, 9, -720890, 0, 8, -720889, 0, 9, -720888, 0, 8, -720887, 0, 9, -720886, 0, 8, -720885, 0, 9, -720884, 0, 8, -720883, 0, 9, -720882, 0, 8, -720881, 0, 9, -720880, 0, 9, -720879, 0, 8, -720878, 1, 131081, -720877, 1, 131081, -720876, 1, 131081, -720875, 1, 131081, -720874, 1, 131081, -720873, 1, 131081, -720872, 1, 131081, -720871, 1, 131084, -720870, 1, 131083, -720869, 0, 8, -720868, 0, 8, -720867, 0, 8, -720866, 0, 8, -720865, 0, 9, -720864, 0, 8, -720863, 0, 9, -720862, 0, 8, -720861, 0, 9, -720860, 0, 8, -720859, 0, 9, -720858, 0, 9, -720857, 0, 8, -720856, 0, 9, -720855, 0, 9, -720854, 0, 8, -720853, 0, 8, -720852, 0, 9, -720851, 0, 8, -720850, 0, 8, -720849, 0, 8, -720848, 0, 8, -720847, 0, 8, -720846, 0, 9, -720845, 0, 8, -720844, 0, 9, -720843, 0, 9, -720842, 0, 9, -720841, 0, 8, -589864, 0, 8, -589863, 0, 9, -589862, 0, 9, -589861, 0, 8, -589860, 0, 9, -589859, 0, 9, -589858, 0, 8, -589857, 0, 9, -589856, 0, 9, -589855, 0, 8, -589854, 0, 8, -589853, 0, 8, -589852, 0, 8, -589851, 0, 9, -589850, 0, 9, -589849, 0, 9, -589848, 0, 9, -589847, 0, 9, -589846, 0, 8, -589845, 0, 8, -589844, 0, 9, -589843, 0, 8, -589842, 0, 8, -589841, 0, 9, -589840, 0, 8, -589839, 0, 9, -589838, 0, 8, -589837, 0, 8, -589836, 0, 8, -589835, 6, 458763, -589834, 6, 458764, -589833, 6, 458764, -589832, 6, 458764, -589831, 6, 458764, -589830, 6, 458765, -589829, 0, 8, -589828, 0, 8, -589827, 0, 8, -589826, 0, 8, -589825, 0, 8, -655360, 0, 8, -655359, 0, 9, -655358, 0, 8, -655357, 0, 8, -655356, 0, 9, -655355, 0, 8, -655354, 0, 8, -655353, 0, 9, -655352, 0, 9, -655351, 0, 9, -655350, 0, 9, -655349, 0, 9, -655348, 0, 8, -655347, 0, 9, -655346, 0, 8, -655345, 0, 9, -655344, 0, 8, -655343, 0, 8, -655342, 1, 131081, -655341, 0, 8, -655340, 0, 8, -655339, 0, 8, -655338, 0, 8, -655337, 0, 8, -655336, 0, 8, -655335, 0, 8, -655334, 0, 8, -655333, 0, 8, -655332, 0, 8, -655331, 0, 8, -655330, 0, 8, -655329, 0, 9, -655328, 0, 8, -655327, 0, 9, -655326, 0, 9, -655325, 0, 8, -655324, 0, 8, -655323, 0, 8, -655322, 0, 8, -655321, 0, 8, -655320, 0, 9, -655319, 0, 8, -655318, 0, 9, -655317, 0, 9, -655316, 0, 9, -655315, 0, 9, -655314, 0, 8, -655313, 0, 9, -655312, 0, 8, -655311, 0, 9, -655310, 0, 9, -655309, 0, 8, -655308, 0, 8, -655307, 0, 8, -655306, 0, 9, -655305, 0, 8, -524328, 0, 8, -524327, 0, 9, -524326, 0, 8, -524325, 0, 9, -524324, 0, 8, -524323, 0, 9, -524322, 0, 8, -524321, 0, 9, -524320, 0, 8, -524319, 0, 8, -524318, 0, 9, -524317, 0, 9, -524316, 0, 8, -524315, 0, 9, -524314, 0, 9, -524313, 0, 9, -524312, 0, 9, -524311, 0, 8, -524310, 0, 9, -524309, 0, 8, -524308, 0, 9, -524307, 0, 8, -524306, 0, 9, -524305, 0, 8, -524304, 0, 8, -524303, 0, 8, -524302, 0, 9, -524301, 0, 8, -524300, 0, 8, -524299, 6, 458763, -524298, 6, 458764, -524297, 6, 458764, -524296, 6, 458764, -524295, 6, 458764, -524294, 6, 458765, -524293, 0, 8, -524292, 0, 9, -524291, 0, 8, -524290, 0, 8, -524289, 0, 8, -589824, 0, 8, -589823, 0, 8, -589822, 0, 8, -589821, 0, 9, -589820, 0, 9, -589819, 0, 8, -589818, 0, 9, -589817, 0, 9, -589816, 0, 8, -589815, 0, 8, -589814, 0, 9, -589813, 0, 9, -589812, 0, 8, -589811, 0, 9, -589810, 0, 9, -589809, 0, 8, -589808, 0, 9, -589807, 0, 8, -589806, 1, 131081, -589805, 0, 8, -589804, 0, 8, -589803, 0, 9, -589802, 0, 9, -589801, 0, 9, -589800, 0, 9, -589799, 0, 9, -589798, 0, 9, -589797, 0, 9, -589796, 0, 8, -589795, 0, 9, -589794, 0, 8, -589793, 0, 8, -589792, 0, 8, -589791, 0, 8, -589790, 0, 9, -589789, 0, 8, -589788, 0, 8, -589787, 0, 9, -589786, 0, 9, -589785, 0, 8, -589784, 0, 8, -589783, 0, 8, -589782, 0, 9, -589781, 0, 9, -589780, 0, 8, -589779, 0, 9, -589778, 0, 8, -589777, 0, 8, -589776, 0, 8, -589775, 0, 9, -589774, 0, 9, -589773, 0, 8, -589772, 0, 9, -589771, 0, 9, -589770, 0, 8, -589769, 0, 8, -458792, 0, 8, -458791, 0, 8, -458790, 0, 8, -458789, 0, 9, -458788, 0, 9, -458787, 0, 8, -458786, 0, 8, -458785, 0, 8, -458784, 0, 8, -458783, 0, 8, -458782, 0, 9, -458781, 0, 9, -458780, 0, 9, -458779, 0, 9, -458778, 0, 9, -458777, 0, 8, -458776, 0, 9, -458775, 0, 8, -458774, 0, 8, -458773, 0, 8, -458772, 0, 8, -458771, 0, 9, -458770, 0, 8, -458769, 0, 8, -458768, 0, 9, -458767, 0, 8, -458766, 0, 8, -458765, 0, 9, -458764, 0, 8, -458763, 6, 458763, -458762, 6, 458764, -458761, 6, 458764, -458760, 6, 458764, -458759, 6, 458764, -458758, 6, 458765, -458757, 0, 8, -458756, 0, 8, -458755, 0, 8, -458754, 0, 9, -458753, 0, 8, -524288, 0, 8, -524287, 0, 8, -524286, 0, 8, -524285, 0, 8, -524284, 0, 8, -524283, 0, 9, -524282, 0, 8, -524281, 0, 9, -524280, 0, 9, -524279, 0, 8, -524278, 0, 8, -524277, 0, 9, -524276, 0, 8, -524275, 0, 9, -524274, 0, 8, -524273, 0, 9, -524272, 0, 8, -524271, 0, 8, -524270, 1, 131081, -524269, 0, 8, -524268, 0, 9, -524267, 0, 9, -524266, 0, 8, -524265, 0, 9, -524264, 0, 8, -524263, 0, 8, -524262, 0, 8, -524261, 0, 9, -524260, 0, 9, -524259, 0, 9, -524258, 0, 9, -524257, 0, 9, -524256, 0, 8, -524255, 0, 8, -524254, 0, 8, -524253, 0, 8, -524252, 0, 8, -524251, 0, 8, -524250, 0, 9, -524249, 0, 9, -524248, 0, 9, -524247, 0, 9, -524246, 0, 8, -524245, 0, 9, -524244, 0, 9, -524243, 0, 9, -524242, 0, 9, -524241, 0, 9, -524240, 0, 8, -524239, 0, 8, -524238, 0, 9, -524237, 0, 9, -524236, 0, 8, -524235, 0, 8, -524234, 0, 9, -524233, 0, 8, -393256, 0, 8, -393255, 0, 9, -393254, 0, 8, -393253, 0, 8, -393252, 0, 9, -393251, 0, 8, -393250, 0, 8, -393249, 0, 9, -393248, 0, 9, -393247, 0, 8, -393246, 0, 9, -393245, 0, 9, -393244, 0, 8, -393243, 0, 9, -393242, 0, 8, -393241, 0, 9, -393240, 0, 8, -393239, 0, 9, -393238, 0, 8, -393237, 0, 8, -393236, 0, 9, -393235, 0, 8, -393234, 0, 9, -393233, 0, 9, -393232, 0, 9, -393231, 0, 9, -393230, 0, 8, -393229, 0, 8, -393228, 0, 8, -393227, 6, 458763, -393226, 6, 458764, -393225, 6, 458764, -393224, 6, 458764, -393223, 6, 458764, -393222, 6, 458765, -393221, 0, 8, -393220, 0, 8, -393219, 0, 8, -393218, 0, 8, -393217, 0, 9, -458752, 0, 8, -458751, 0, 8, -458750, 0, 9, -458749, 0, 9, -458748, 0, 9, -458747, 0, 8, -458746, 0, 9, -458745, 0, 9, -458744, 0, 9, -458743, 0, 9, -458742, 0, 9, -458741, 0, 8, -458740, 0, 9, -458739, 0, 8, -458738, 0, 8, -458737, 0, 8, -458736, 0, 8, -458735, 0, 8, -458734, 1, 131081, -458733, 0, 8, -458732, 0, 8, -458731, 0, 9, -458730, 0, 8, -458729, 0, 9, -458728, 0, 8, -458727, 0, 8, -458726, 0, 8, -458725, 0, 8, -458724, 0, 8, -458723, 0, 8, -458722, 0, 8, -458721, 0, 9, -458720, 0, 9, -458719, 0, 9, -458718, 0, 8, -458717, 0, 8, -458716, 0, 9, -458715, 0, 8, -458714, 0, 8, -458713, 0, 8, -458712, 0, 9, -458711, 0, 9, -458710, 0, 8, -458709, 0, 8, -458708, 0, 8, -458707, 0, 9, -458706, 0, 9, -458705, 0, 8, -458704, 0, 9, -458703, 0, 8, -458702, 0, 9, -458701, 0, 9, -458700, 0, 9, -458699, 0, 9, -458698, 0, 9, -458697, 0, 8, -327720, 0, 8, -327719, 0, 9, -327718, 0, 9, -327717, 0, 8, -327716, 0, 8, -327715, 0, 9, -327714, 0, 9, -327713, 0, 8, -327712, 0, 8, -327711, 0, 8, -327710, 0, 8, -327709, 0, 8, -327708, 0, 9, -327707, 0, 9, -327706, 0, 8, -327705, 0, 8, -327704, 0, 9, -327703, 0, 8, -327702, 0, 8, -327701, 0, 8, -327700, 0, 9, -327699, 0, 8, -327698, 0, 9, -327697, 0, 8, -327696, 0, 8, -327695, 0, 9, -327694, 0, 8, -327693, 0, 9, -327692, 0, 8, -327691, 6, 458763, -327690, 6, 458764, -327689, 6, 458764, -327688, 6, 458764, -327687, 6, 458764, -327686, 6, 458765, -327685, 0, 8, -327684, 0, 9, -327683, 0, 9, -327682, 0, 8, -327681, 0, 8, -393216, 0, 8, -393215, 0, 8, -393214, 0, 8, -393213, 0, 9, -393212, 0, 8, -393211, 0, 8, -393210, 0, 9, -393209, 0, 9, -393208, 0, 9, -393207, 0, 9, -393206, 0, 9, -393205, 0, 8, -393204, 0, 8, -393203, 0, 9, -393202, 0, 9, -393201, 0, 9, -393200, 0, 8, -393199, 0, 8, -393198, 1, 131081, -393197, 0, 8, -393196, 0, 8, -393195, 0, 9, -393194, 0, 9, -393193, 0, 9, -393192, 0, 9, -393191, 0, 8, -393190, 0, 8, -393189, 0, 8, -393188, 0, 9, -393187, 0, 8, -393186, 0, 9, -393185, 0, 9, -393184, 0, 8, -393183, 0, 8, -393182, 0, 8, -393181, 0, 8, -393180, 0, 9, -393179, 0, 9, -393178, 0, 9, -393177, 0, 8, -393176, 0, 9, -393175, 0, 8, -393174, 0, 9, -393173, 0, 9, -393172, 0, 9, -393171, 0, 8, -393170, 0, 8, -393169, 0, 9, -393168, 0, 8, -393167, 0, 9, -393166, 0, 8, -393165, 0, 8, -393164, 0, 8, -393163, 0, 8, -393162, 0, 9, -393161, 0, 8, -262184, 0, 8, -262183, 0, 8, -262182, 0, 8, -262181, 0, 9, -262180, 0, 9, -262179, 0, 8, -262178, 0, 9, -262177, 0, 8, -262176, 0, 8, -262175, 0, 9, -262174, 0, 9, -262173, 0, 9, -262172, 0, 9, -262171, 0, 9, -262170, 0, 8, -262169, 0, 9, -262168, 0, 9, -262167, 0, 9, -262166, 0, 9, -262165, 0, 9, -262164, 0, 9, -262163, 0, 9, -262162, 0, 8, -262161, 0, 9, -262160, 0, 9, -262159, 0, 8, -262158, 0, 8, -262157, 0, 9, -262156, 0, 8, -262155, 6, 458763, -262154, 6, 458764, -262153, 6, 458764, -262152, 6, 458764, -262151, 6, 458764, -262150, 6, 458765, -262149, 0, 8, -262148, 0, 8, -262147, 0, 9, -262146, 0, 9, -262145, 0, 8, -327680, 0, 8, -327679, 0, 8, -327678, 0, 8, -327677, 0, 9, -327676, 0, 9, -327675, 0, 9, -327674, 0, 8, -327673, 0, 8, -327672, 0, 9, -327671, 0, 8, -327670, 0, 8, -327669, 0, 8, -327668, 0, 8, -327667, 0, 8, -327666, 0, 8, -327665, 0, 8, -327664, 0, 8, -327663, 0, 8, -327662, 1, 131081, -327661, 0, 8, -327660, 0, 8, -327659, 0, 8, -327658, 0, 8, -327657, 0, 8, -327656, 0, 8, -327655, 0, 8, -327654, 0, 9, -327653, 0, 8, -327652, 0, 9, -327651, 0, 9, -327650, 0, 8, -327649, 0, 8, -327648, 0, 9, -327647, 0, 8, -327646, 0, 9, -327645, 0, 8, -327644, 0, 8, -327643, 0, 9, -327642, 0, 9, -327641, 0, 8, -327640, 0, 9, -327639, 0, 9, -327638, 0, 8, -327637, 0, 9, -327636, 0, 9, -327635, 0, 9, -327634, 0, 9, -327633, 0, 8, -327632, 0, 9, -327631, 0, 9, -327630, 0, 9, -327629, 0, 9, -327628, 0, 8, -327627, 0, 8, -327626, 0, 8, -327625, 0, 8, -196648, 0, 8, -196647, 0, 9, -196646, 0, 9, -196645, 0, 9, -196644, 0, 8, -196643, 0, 8, -196642, 0, 8, -196641, 0, 8, -196640, 0, 9, -196639, 0, 8, -196638, 0, 8, -196637, 0, 9, -196636, 0, 8, -196635, 0, 8, -196634, 0, 8, -196633, 0, 9, -196632, 0, 8, -196631, 0, 8, -196630, 0, 9, -196629, 0, 9, -196628, 0, 9, -196627, 0, 8, -196626, 0, 8, -196625, 0, 9, -196624, 0, 8, -196623, 0, 9, -196622, 0, 8, -196621, 0, 8, -196620, 0, 8, -196619, 6, 458763, -196618, 6, 458764, -196617, 6, 458764, -196616, 6, 458764, -196615, 6, 458764, -196614, 6, 458765, -196613, 0, 8, -196612, 0, 8, -196611, 0, 9, -196610, 0, 9, -196609, 0, 9, -262144, 0, 9, -262143, 0, 8, -262142, 0, 8, -262141, 0, 8, -262140, 0, 9, -262139, 0, 9, -262138, 0, 9, -262137, 0, 8, -262136, 0, 9, -262135, 0, 9, -262134, 0, 8, -262133, 0, 8, -262132, 0, 8, -262131, 1, 196620, -262130, 1, 65545, -262129, 1, 65545, -262128, 1, 65545, -262127, 1, 65545, -262126, 1, 65545, -262125, 1, 65545, -262124, 1, 65545, -262123, 1, 65545, -262122, 1, 65546, -262121, 0, 8, -262120, 0, 9, -262119, 0, 8, -262118, 0, 9, -262117, 0, 9, -262116, 0, 8, -262115, 0, 8, -262114, 0, 9, -262113, 0, 8, -262112, 0, 8, -262111, 0, 8, -262110, 0, 8, -262109, 0, 8, -262108, 0, 9, -262107, 0, 8, -262106, 0, 8, -262105, 0, 8, -262104, 0, 8, -262103, 0, 8, -262102, 0, 9, -262101, 0, 9, -262100, 0, 9, -262099, 0, 8, -262098, 0, 9, -262097, 0, 9, -262096, 0, 8, -262095, 0, 8, -262094, 0, 8, -262093, 0, 9, -262092, 0, 9, -262091, 0, 8, -262090, 0, 8, -262089, 0, 8, -131112, 0, 8, -131111, 0, 9, -131110, 0, 8, -131109, 0, 8, -131108, 0, 8, -131107, 0, 8, -131106, 0, 8, -131105, 0, 9, -131104, 0, 9, -131103, 0, 9, -131102, 0, 9, -131101, 0, 8, -131100, 0, 9, -131099, 0, 9, -131098, 0, 9, -131097, 0, 9, -131096, 0, 8, -131095, 0, 9, -131094, 0, 8, -131093, 0, 9, -131092, 0, 8, -131091, 0, 9, -131090, 0, 9, -131089, 0, 8, -131088, 0, 8, -131087, 0, 9, -131086, 0, 8, -131085, 6, 393227, -131084, 6, 393228, -131083, 6, 458766, -131082, 6, 458764, -131081, 6, 458764, -131080, 6, 458764, -131079, 6, 458764, -131078, 6, 458765, -131077, 0, 8, -131076, 0, 8, -131075, 0, 8, -131074, 0, 8, -131073, 0, 9, -196608, 0, 8, -196607, 0, 8, -196606, 0, 9, -196605, 0, 9, -196604, 0, 8, -196603, 0, 9, -196602, 0, 8, -196601, 0, 9, -196600, 0, 8, -196599, 0, 8, -196598, 0, 8, -196597, 0, 8, -196596, 0, 8, -196595, 1, 131080, -196594, 1, 131081, -196593, 1, 131081, -196592, 1, 131081, -196591, 1, 131081, -196590, 1, 131081, -196589, 1, 131081, -196588, 1, 131081, -196587, 1, 131081, -196586, 1, 131082, -196585, 0, 8, -196584, 0, 8, -196583, 0, 8, -196582, 0, 9, -196581, 0, 8, -196580, 0, 8, -196579, 0, 9, -196578, 0, 9, -196577, 0, 8, -196576, 0, 9, -196575, 0, 8, -196574, 0, 9, -196573, 0, 9, -196572, 0, 8, -196571, 0, 8, -196570, 0, 9, -196569, 0, 9, -196568, 0, 9, -196567, 0, 8, -196566, 0, 8, -196565, 0, 8, -196564, 0, 8, -196563, 0, 8, -196562, 0, 9, -196561, 0, 9, -196560, 0, 8, -196559, 0, 8, -196558, 0, 8, -196557, 0, 9, -196556, 0, 8, -196555, 0, 8, -196554, 0, 9, -196553, 0, 8, -65576, 0, 8, -65575, 0, 8, -65574, 0, 9, -65573, 0, 9, -65572, 0, 9, -65571, 0, 9, -65570, 0, 9, -65569, 0, 8, -65568, 0, 9, -65567, 0, 9, -65566, 0, 9, -65565, 0, 8, -65564, 0, 9, -65563, 0, 8, -65562, 0, 9, -65561, 0, 9, -65560, 0, 9, -65559, 0, 8, -65558, 0, 8, -65557, 0, 8, -65556, 0, 8, -65555, 0, 8, -65554, 0, 9, -65553, 0, 9, -65552, 0, 8, -65551, 0, 8, -65550, 0, 8, -65549, 6, 458763, -65548, 6, 458764, -65547, 6, 458764, -65546, 6, 458764, -65545, 6, 458764, -65544, 6, 458764, -65543, 6, 458764, -65542, 6, 458765, -65541, 0, 8, -65540, 0, 9, -65539, 0, 9, -65538, 0, 9, -65537, 0, 8, -131072, 0, 9, -131071, 0, 9, -131070, 0, 9, -131069, 0, 9, -131068, 0, 8, -131067, 0, 8, -131066, 0, 8, -131065, 0, 8, -131064, 0, 9, -131063, 0, 9, -131062, 0, 9, -131061, 0, 9, -131060, 0, 8, -131059, 1, 131080, -131058, 1, 131081, -131057, 1, 131081, -131056, 1, 131081, -131055, 1, 131081, -131054, 1, 131081, -131053, 1, 131081, -131052, 1, 131081, -131051, 1, 131081, -131050, 1, 131082, -131049, 0, 8, -131048, 0, 8, -131047, 0, 9, -131046, 0, 8, -131045, 0, 8, -131044, 0, 9, -131043, 0, 9, -131042, 0, 8, -131041, 0, 9, -131040, 0, 8, -131039, 0, 9, -131038, 0, 8, -131037, 0, 9, -131036, 0, 8, -131035, 0, 9, -131034, 0, 9, -131033, 0, 8, -131032, 0, 8, -131031, 0, 9, -131030, 0, 9, -131029, 0, 9, -131028, 0, 8, -131027, 0, 9, -131026, 0, 9, -131025, 0, 9, -131024, 0, 9, -131023, 0, 9, -131022, 0, 8, -131021, 0, 9, -131020, 0, 8, -131019, 0, 8, -131018, 0, 8, -131017, 0, 8, -40, 0, 8, -39, 0, 8, -38, 0, 8, -37, 0, 8, -36, 0, 9, -35, 0, 8, -34, 0, 8, -33, 0, 9, -32, 0, 9, -31, 0, 8, -30, 0, 9, -29, 0, 8, -28, 0, 8, -27, 0, 9, -26, 0, 8, -25, 0, 8, -24, 0, 8, -23, 0, 9, -22, 0, 8, -21, 0, 8, -20, 0, 9, -19, 0, 8, -18, 0, 9, -17, 0, 9, -16, 0, 9, -15, 0, 9, -14, 0, 8, -13, 6, 458763, -12, 6, 458764, -11, 6, 458764, -10, 6, 458764, -9, 6, 458764, -8, 6, 458764, -7, 6, 458764, -6, 6, 458765, -5, 0, 8, -4, 0, 9, -3, 0, 8, -2, 0, 9, -1, 0, 9, -65536, 0, 9, -65535, 0, 8, -65534, 0, 8, -65533, 0, 8, -65532, 0, 9, -65531, 0, 8, -65530, 0, 9, -65529, 0, 8, -65528, 0, 9, -65527, 0, 9, -65526, 0, 9, -65525, 0, 9, -65524, 0, 8, -65523, 1, 131080, -65522, 1, 131081, -65521, 1, 131081, -65520, 1, 131081, -65519, 1, 131081, -65518, 1, 131081, -65517, 1, 131081, -65516, 1, 131081, -65515, 1, 131081, -65514, 1, 131082, -65513, 0, 8, -65512, 0, 8, -65511, 0, 8, -65510, 0, 8, -65509, 0, 8, -65508, 0, 8, -65507, 0, 8, -65506, 0, 8, -65505, 0, 8, -65504, 0, 8, -65503, 0, 8, -65502, 0, 8, -65501, 0, 8, -65500, 0, 8, -65499, 0, 8, -65498, 0, 8, -65497, 0, 8, -65496, 0, 8, -65495, 0, 8, -65494, 0, 8, -65493, 0, 8, -65492, 0, 8, -65491, 0, 8, -65490, 0, 8, -65489, 0, 8, -65488, 0, 8, -65487, 0, 8, -65486, 0, 8, -65485, 0, 9, -65484, 0, 8, -65483, 0, 9, -65482, 0, 9, -65481, 0, 8, 65496, 0, 8, 65497, 0, 9, 65498, 0, 9, 65499, 0, 8, 65500, 0, 8, 65501, 0, 8, 65502, 0, 9, 65503, 0, 9, 65504, 0, 8, 65505, 0, 9, 65506, 0, 8, 65507, 0, 9, 65508, 0, 9, 65509, 0, 8, 65510, 0, 8, 65511, 0, 9, 65512, 0, 8, 65513, 0, 9, 65514, 0, 9, 65515, 0, 8, 65516, 0, 9, 65517, 0, 8, 65518, 0, 8, 65519, 0, 8, 65520, 0, 8, 65521, 0, 9, 65522, 0, 8, 65523, 6, 458763, 65524, 6, 458764, 65525, 6, 458764, 65526, 6, 458764, 65527, 6, 524303, 65528, 6, 524300, 65529, 6, 524300, 65530, 6, 524301, 65531, 0, 8, 65532, 0, 9, 65533, 0, 9, 65534, 0, 8, 65535, 0, 8, 0, 0, 8, 1, 0, 9, 2, 0, 8, 3, 0, 8, 4, 0, 8, 5, 0, 9, 6, 0, 9, 7, 0, 8, 8, 0, 8, 9, 0, 8, 10, 0, 9, 11, 0, 9, 12, 0, 8, 13, 1, 131080, 14, 1, 131081, 15, 1, 131081, 16, 1, 131081, 17, 1, 131081, 18, 1, 131081, 19, 1, 131081, 20, 1, 131081, 21, 1, 131081, 22, 1, 131082, 23, 1, 131081, 24, 1, 131081, 25, 1, 131081, 26, 1, 131081, 27, 1, 131081, 28, 1, 131081, 29, 1, 131081, 30, 1, 131081, 31, 1, 131081, 32, 1, 131081, 33, 1, 131081, 34, 1, 131081, 35, 1, 131081, 36, 1, 131081, 37, 1, 131081, 38, 1, 131081, 39, 1, 131081, 40, 1, 131081, 41, 1, 131081, 42, 1, 131081, 43, 1, 131081, 44, 1, 131081, 45, 1, 131081, 46, 1, 131081, 47, 0, 8, 48, 0, 8, 49, 0, 8, 50, 0, 8, 51, 0, 8, 52, 0, 8, 53, 0, 8, 54, 0, 8, 55, 0, 8, 131032, 0, 8, 131033, 0, 9, 131034, 0, 8, 131035, 0, 8, 131036, 0, 9, 131037, 0, 9, 131038, 0, 9, 131039, 0, 9, 131040, 0, 9, 131041, 0, 8, 131042, 0, 8, 131043, 0, 9, 131044, 0, 8, 131045, 0, 8, 131046, 0, 8, 131047, 0, 8, 131048, 0, 9, 131049, 0, 8, 131050, 0, 9, 131051, 0, 8, 131052, 0, 8, 131053, 0, 8, 131054, 0, 9, 131055, 0, 8, 131056, 0, 9, 131057, 0, 8, 131058, 0, 8, 131059, 6, 458763, 131060, 6, 458764, 131061, 6, 458764, 131062, 6, 458764, 131063, 6, 458765, 131064, 0, 8, 131065, 0, 8, 131066, 0, 8, 131067, 0, 8, 131068, 0, 8, 131069, 0, 8, 131070, 0, 8, 131071, 0, 8, 65536, 0, 9, 65537, 0, 9, 65538, 0, 9, 65539, 0, 9, 65540, 0, 8, 65541, 0, 9, 65542, 0, 9, 65543, 0, 9, 65544, 0, 9, 65545, 0, 9, 65546, 0, 9, 65547, 0, 9, 65548, 0, 8, 65549, 1, 131080, 65550, 1, 131081, 65551, 1, 131081, 65552, 1, 131081, 65553, 1, 131081, 65554, 1, 131081, 65555, 1, 131081, 65556, 1, 131081, 65557, 1, 131081, 65558, 1, 131082, 65559, 0, 8, 65560, 0, 8, 65561, 0, 8, 65562, 0, 8, 65563, 0, 8, 65564, 0, 8, 65565, 0, 8, 65566, 0, 8, 65567, 1, 131081, 65568, 0, 8, 65569, 0, 8, 65570, 0, 8, 65571, 0, 8, 65572, 0, 8, 65573, 0, 8, 65574, 0, 8, 65575, 0, 8, 65576, 0, 8, 65577, 0, 8, 65578, 0, 8, 65579, 0, 8, 65580, 0, 8, 65581, 0, 8, 65582, 0, 8, 65583, 0, 8, 65584, 0, 8, 65585, 0, 8, 65586, 0, 9, 65587, 0, 9, 65588, 0, 8, 65589, 0, 8, 65590, 0, 9, 65591, 0, 8, 196568, 0, 8, 196569, 0, 8, 196570, 0, 8, 196571, 0, 9, 196572, 0, 9, 196573, 0, 9, 196574, 0, 9, 196575, 0, 8, 196576, 0, 8, 196577, 0, 8, 196578, 0, 9, 196579, 0, 8, 196580, 0, 8, 196581, 0, 8, 196582, 0, 9, 196583, 0, 8, 196584, 0, 8, 196585, 0, 9, 196586, 0, 9, 196587, 0, 8, 196588, 0, 9, 196589, 0, 9, 196590, 0, 9, 196591, 0, 8, 196592, 0, 8, 196593, 0, 9, 196594, 0, 8, 196595, 6, 458763, 196596, 6, 458764, 196597, 6, 458764, 196598, 6, 524303, 196599, 6, 524301, 196600, 0, 8, 196601, 0, 8, 196602, 0, 9, 196603, 0, 8, 196604, 0, 9, 196605, 0, 9, 196606, 0, 8, 196607, 0, 9, 131072, 0, 9, 131073, 0, 8, 131074, 0, 8, 131075, 0, 8, 131076, 0, 8, 131077, 0, 8, 131078, 0, 8, 131079, 0, 8, 131080, 0, 8, 131081, 0, 8, 131082, 0, 8, 131083, 0, 8, 131084, 0, 8, 131085, 1, 131080, 131086, 1, 131081, 131087, 1, 131081, 131088, 1, 131081, 131089, 1, 131081, 131090, 1, 131081, 131091, 1, 131081, 131092, 1, 131081, 131093, 1, 131081, 131094, 1, 131082, 131095, 0, 8, 131096, 0, 9, 131097, 0, 9, 131098, 0, 9, 131099, 0, 9, 131100, 0, 9, 131101, 0, 8, 131102, 0, 8, 131103, 1, 131081, 131104, 0, 8, 131105, 0, 8, 131106, 0, 8, 131107, 0, 8, 131108, 0, 8, 131109, 0, 9, 131110, 0, 9, 131111, 0, 8, 131112, 0, 8, 131113, 0, 9, 131114, 0, 9, 131115, 0, 9, 131116, 0, 9, 131117, 0, 8, 131118, 0, 9, 131119, 0, 8, 131120, 0, 9, 131121, 0, 8, 131122, 0, 8, 131123, 0, 8, 131124, 0, 9, 131125, 0, 8, 131126, 0, 8, 131127, 0, 8, 262104, 0, 8, 262105, 0, 8, 262106, 0, 8, 262107, 0, 9, 262108, 0, 9, 262109, 0, 8, 262110, 0, 9, 262111, 0, 8, 262112, 0, 8, 262113, 0, 8, 262114, 0, 8, 262115, 0, 9, 262116, 0, 8, 262117, 0, 8, 262118, 0, 8, 262119, 0, 8, 262120, 0, 8, 262121, 0, 9, 262122, 0, 9, 262123, 0, 8, 262124, 0, 8, 262125, 0, 8, 262126, 0, 9, 262127, 0, 8, 262128, 0, 9, 262129, 0, 9, 262130, 0, 8, 262131, 6, 458763, 262132, 6, 458764, 262133, 6, 458764, 262134, 6, 458765, 262135, 0, 8, 262136, 0, 8, 262137, 0, 8, 262138, 0, 8, 262139, 0, 8, 262140, 0, 8, 262141, 0, 8, 262142, 0, 8, 262143, 0, 9, 196608, 0, 9, 196609, 0, 8, 196610, 0, 8, 196611, 1, 131081, 196612, 1, 131081, 196613, 1, 131081, 196614, 1, 131081, 196615, 1, 131081, 196616, 1, 131081, 196617, 1, 131081, 196618, 0, 8, 196619, 0, 8, 196620, 0, 8, 196621, 1, 196616, 196622, 1, 196617, 196623, 1, 196617, 196624, 1, 196617, 196625, 1, 196617, 196626, 1, 196617, 196627, 1, 196617, 196628, 1, 196617, 196629, 1, 196617, 196630, 1, 131083, 196631, 0, 8, 196632, 0, 9, 196633, 0, 9, 196634, 0, 8, 196635, 0, 8, 196636, 0, 9, 196637, 0, 9, 196638, 0, 8, 196639, 1, 131081, 196640, 0, 8, 196641, 0, 8, 196642, 0, 9, 196643, 0, 8, 196644, 0, 8, 196645, 0, 8, 196646, 0, 9, 196647, 0, 8, 196648, 0, 9, 196649, 0, 8, 196650, 0, 8, 196651, 0, 8, 196652, 0, 9, 196653, 0, 8, 196654, 0, 8, 196655, 0, 8, 196656, 0, 8, 196657, 0, 9, 196658, 0, 9, 196659, 0, 8, 196660, 0, 8, 196661, 0, 9, 196662, 0, 8, 196663, 0, 8, 327640, 0, 8, 327641, 0, 8, 327642, 0, 9, 327643, 0, 9, 327644, 0, 8, 327645, 0, 9, 327646, 0, 8, 327647, 0, 8, 327648, 0, 8, 327649, 0, 9, 327650, 0, 9, 327651, 0, 9, 327652, 0, 8, 327653, 0, 9, 327654, 0, 8, 327655, 0, 8, 327656, 0, 8, 327657, 0, 9, 327658, 0, 9, 327659, 0, 8, 327660, 0, 9, 327661, 0, 9, 327662, 0, 9, 327663, 0, 9, 327664, 0, 9, 327665, 0, 9, 327666, 0, 8, 327667, 6, 524299, 327668, 6, 524302, 327669, 6, 458764, 327670, 6, 458765, 327671, 0, 8, 327672, 0, 8, 327673, 0, 9, 327674, 0, 8, 327675, 0, 9, 327676, 0, 8, 327677, 0, 8, 327678, 0, 8, 327679, 0, 8, 262144, 0, 8, 262145, 0, 8, 262146, 0, 8, 262147, 0, 8, 262148, 0, 8, 262149, 0, 8, 262150, 0, 8, 262151, 0, 8, 262152, 0, 8, 262153, 0, 8, 262154, 0, 8, 262155, 0, 8, 262156, 0, 8, 262157, 0, 8, 262158, 0, 8, 262159, 0, 8, 262160, 0, 8, 262161, 0, 8, 262162, 0, 8, 262163, 0, 8, 262164, 0, 8, 262165, 0, 8, 262166, 0, 8, 262167, 0, 8, 262168, 0, 8, 262169, 0, 9, 262170, 0, 9, 262171, 0, 8, 262172, 0, 8, 262173, 0, 9, 262174, 0, 8, 262175, 1, 131081, 262176, 0, 8, 262177, 0, 9, 262178, 0, 9, 262179, 0, 9, 262180, 0, 8, 262181, 0, 8, 262182, 0, 8, 262183, 0, 9, 262184, 0, 8, 262185, 0, 9, 262186, 0, 9, 262187, 0, 9, 262188, 0, 8, 262189, 0, 8, 262190, 0, 8, 262191, 0, 9, 262192, 0, 8, 262193, 0, 9, 262194, 0, 8, 262195, 0, 9, 262196, 0, 8, 262197, 0, 8, 262198, 0, 9, 262199, 0, 8, 393176, 0, 8, 393177, 0, 8, 393178, 0, 9, 393179, 0, 9, 393180, 0, 9, 393181, 0, 9, 393182, 0, 9, 393183, 0, 8, 393184, 0, 8, 393185, 0, 9, 393186, 0, 8, 393187, 0, 8, 393188, 0, 9, 393189, 0, 8, 393190, 0, 8, 393191, 0, 9, 393192, 0, 9, 393193, 0, 8, 393194, 0, 8, 393195, 0, 9, 393196, 0, 9, 393197, 0, 9, 393198, 0, 9, 393199, 0, 9, 393200, 0, 8, 393201, 0, 8, 393202, 0, 8, 393203, 0, 8, 393204, 6, 458763, 393205, 6, 458764, 393206, 6, 458765, 393207, 0, 8, 393208, 0, 9, 393209, 0, 9, 393210, 0, 8, 393211, 0, 8, 393212, 0, 8, 393213, 0, 9, 393214, 0, 9, 393215, 0, 8, 327680, 1, 65544, 327681, 1, 65546, 327682, 0, 8, 327683, 0, 9, 327684, 0, 9, 327685, 0, 8, 327686, 0, 9, 327687, 0, 9, 327688, 0, 9, 327689, 0, 9, 327690, 0, 8, 327691, 0, 8, 327692, 0, 8, 327693, 0, 8, 327694, 0, 8, 327695, 0, 9, 327696, 0, 8, 327697, 0, 9, 327698, 0, 9, 327699, 0, 8, 327700, 0, 8, 327701, 0, 8, 327702, 0, 9, 327703, 0, 9, 327704, 0, 9, 327705, 0, 9, 327706, 0, 8, 327707, 0, 8, 327708, 0, 8, 327709, 0, 8, 327710, 0, 8, 327711, 1, 131081, 327712, 0, 8, 327713, 0, 9, 327714, 0, 9, 327715, 0, 9, 327716, 0, 8, 327717, 0, 8, 327718, 0, 8, 327719, 0, 8, 327720, 0, 8, 327721, 0, 9, 327722, 0, 8, 327723, 0, 8, 327724, 0, 9, 327725, 0, 9, 327726, 0, 9, 327727, 0, 9, 327728, 0, 8, 327729, 0, 8, 327730, 0, 9, 327731, 0, 8, 327732, 0, 8, 327733, 0, 9, 327734, 0, 8, 327735, 0, 8, 458712, 0, 8, 458713, 0, 8, 458714, 0, 8, 458715, 0, 8, 458716, 0, 8, 458717, 0, 9, 458718, 0, 8, 458719, 0, 9, 458720, 0, 9, 458721, 0, 9, 458722, 0, 8, 458723, 0, 9, 458724, 0, 8, 458725, 0, 8, 458726, 0, 9, 458727, 0, 8, 458728, 0, 8, 458729, 0, 8, 458730, 0, 9, 458731, 0, 9, 458732, 0, 8, 458733, 0, 9, 458734, 0, 9, 458735, 0, 9, 458736, 0, 8, 458737, 0, 9, 458738, 0, 9, 458739, 0, 8, 458740, 6, 458763, 458741, 6, 458764, 458742, 6, 458765, 458743, 0, 8, 458744, 0, 8, 458745, 0, 9, 458746, 0, 9, 458747, 0, 8, 458748, 0, 9, 458749, 0, 9, 458750, 0, 9, 458751, 0, 8, 393216, 1, 131080, 393217, 1, 131082, 393218, 0, 8, 393219, 0, 9, 393220, 0, 8, 393221, 0, 9, 393222, 0, 9, 393223, 0, 8, 393224, 0, 9, 393225, 0, 9, 393226, 0, 8, 393227, 1, 196620, 393228, 1, 65546, 393229, 0, 8, 393230, 0, 9, 393231, 0, 9, 393232, 0, 8, 393233, 0, 9, 393234, 0, 8, 393235, 0, 9, 393236, 0, 9, 393237, 0, 9, 393238, 0, 9, 393239, 0, 8, 393240, 0, 9, 393241, 0, 8, 393242, 0, 9, 393243, 0, 8, 393244, 0, 9, 393245, 0, 8, 393246, 0, 8, 393247, 1, 131081, 393248, 0, 8, 393249, 0, 9, 393250, 0, 9, 393251, 0, 9, 393252, 0, 8, 393253, 0, 9, 393254, 0, 8, 393255, 0, 8, 393256, 0, 9, 393257, 0, 9, 393258, 0, 9, 393259, 0, 9, 393260, 0, 9, 393261, 0, 9, 393262, 0, 9, 393263, 0, 9, 393264, 0, 9, 393265, 0, 9, 393266, 0, 9, 393267, 0, 8, 393268, 0, 8, 393269, 0, 8, 393270, 0, 9, 393271, 0, 8, 524248, 0, 8, 524249, 0, 9, 524250, 0, 9, 524251, 0, 9, 524252, 0, 8, 524253, 0, 9, 524254, 0, 9, 524255, 0, 9, 524256, 0, 8, 524257, 0, 9, 524258, 0, 8, 524259, 0, 8, 524260, 0, 8, 524261, 0, 9, 524262, 0, 9, 524263, 0, 8, 524264, 0, 8, 524265, 0, 9, 524266, 0, 9, 524267, 0, 8, 524268, 0, 8, 524269, 0, 9, 524270, 0, 8, 524271, 0, 9, 524272, 0, 8, 524273, 0, 9, 524274, 0, 8, 524275, 0, 8, 524276, 6, 458763, 524277, 6, 458764, 524278, 6, 458765, 524279, 0, 8, 524280, 0, 8, 524281, 0, 8, 524282, 0, 9, 524283, 0, 9, 524284, 0, 9, 524285, 0, 8, 524286, 0, 8, 524287, 0, 8, 458752, 1, 131080, 458753, 1, 131082, 458754, 0, 8, 458755, 0, 9, 458756, 0, 8, 458757, 0, 8, 458758, 0, 9, 458759, 0, 8, 458760, 0, 9, 458761, 0, 8, 458762, 0, 8, 458763, 1, 131080, 458764, 1, 131082, 458765, 0, 8, 458766, 0, 9, 458767, 0, 8, 458768, 0, 8, 458769, 0, 9, 458770, 0, 8, 458771, 0, 9, 458772, 0, 8, 458773, 0, 8, 458774, 0, 8, 458775, 0, 9, 458776, 0, 8, 458777, 0, 8, 458778, 0, 8, 458779, 0, 8, 458780, 0, 9, 458781, 0, 8, 458782, 0, 8, 458783, 1, 131081, 458784, 0, 8, 458785, 0, 9, 458786, 0, 9, 458787, 0, 8, 458788, 0, 8, 458789, 0, 8, 458790, 0, 8, 458791, 0, 8, 458792, 0, 9, 458793, 0, 8, 458794, 0, 8, 458795, 0, 8, 458796, 0, 8, 458797, 0, 9, 458798, 0, 9, 458799, 0, 8, 458800, 0, 9, 458801, 0, 9, 458802, 0, 9, 458803, 0, 9, 458804, 0, 9, 458805, 0, 9, 458806, 0, 9, 458807, 0, 8, 589784, 0, 8, 589785, 0, 8, 589786, 0, 9, 589787, 0, 9, 589788, 0, 8, 589789, 0, 8, 589790, 0, 8, 589791, 0, 9, 589792, 0, 8, 589793, 0, 9, 589794, 0, 8, 589795, 0, 8, 589796, 0, 8, 589797, 0, 9, 589798, 0, 8, 589799, 0, 9, 589800, 0, 8, 589801, 0, 8, 589802, 0, 9, 589803, 0, 9, 589804, 0, 9, 589805, 0, 9, 589806, 0, 9, 589807, 0, 8, 589808, 0, 8, 589809, 0, 9, 589810, 0, 9, 589811, 0, 8, 589812, 6, 458763, 589813, 6, 458764, 589814, 6, 458765, 589815, 0, 8, 589816, 0, 8, 589817, 0, 9, 589818, 0, 9, 589819, 0, 9, 589820, 0, 8, 589821, 0, 8, 589822, 0, 9, 589823, 0, 8, 524288, 1, 131080, 524289, 1, 131082, 524290, 0, 8, 524291, 0, 8, 524292, 0, 8, 524293, 0, 8, 524294, 0, 8, 524295, 0, 8, 524296, 0, 9, 524297, 0, 8, 524298, 0, 8, 524299, 1, 131080, 524300, 1, 131082, 524301, 0, 8, 524302, 0, 8, 524303, 0, 9, 524304, 0, 8, 524305, 0, 9, 524306, 0, 9, 524307, 0, 9, 524308, 0, 9, 524309, 0, 9, 524310, 0, 8, 524311, 0, 8, 524312, 0, 9, 524313, 0, 9, 524314, 0, 9, 524315, 0, 8, 524316, 0, 8, 524317, 0, 8, 524318, 0, 8, 524319, 1, 131081, 524320, 0, 8, 524321, 0, 8, 524322, 0, 8, 524323, 0, 9, 524324, 0, 9, 524325, 0, 8, 524326, 0, 9, 524327, 0, 9, 524328, 0, 9, 524329, 0, 8, 524330, 0, 9, 524331, 0, 8, 524332, 0, 8, 524333, 0, 9, 524334, 0, 8, 524335, 0, 8, 524336, 0, 9, 524337, 0, 9, 524338, 0, 9, 524339, 0, 8, 524340, 0, 8, 524341, 0, 9, 524342, 0, 8, 524343, 0, 8, 655320, 0, 8, 655321, 0, 8, 655322, 0, 8, 655323, 0, 8, 655324, 0, 8, 655325, 0, 9, 655326, 0, 9, 655327, 0, 8, 655328, 0, 9, 655329, 0, 9, 655330, 0, 8, 655331, 0, 9, 655332, 0, 8, 655333, 0, 9, 655334, 0, 8, 655335, 0, 9, 655336, 0, 8, 655337, 0, 9, 655338, 0, 8, 655339, 0, 8, 655340, 0, 9, 655341, 0, 8, 655342, 0, 8, 655343, 0, 8, 655344, 0, 9, 655345, 0, 9, 655346, 0, 8, 655347, 0, 8, 655348, 6, 458763, 655349, 6, 458764, 655350, 6, 458765, 655351, 0, 8, 655352, 0, 8, 655353, 0, 8, 655354, 0, 8, 655355, 0, 9, 655356, 0, 9, 655357, 0, 8, 655358, 0, 9, 655359, 0, 8, 589824, 1, 131080, 589825, 1, 131082, 589826, 0, 8, 589827, 0, 8, 589828, 0, 9, 589829, 0, 9, 589830, 0, 8, 589831, 0, 8, 589832, 0, 9, 589833, 0, 9, 589834, 0, 8, 589835, 1, 131080, 589836, 1, 131082, 589837, 0, 8, 589838, 0, 8, 589839, 0, 9, 589840, 0, 8, 589841, 0, 8, 589842, 0, 8, 589843, 0, 8, 589844, 0, 9, 589845, 0, 9, 589846, 0, 8, 589847, 0, 8, 589848, 0, 9, 589849, 0, 8, 589850, 0, 9, 589851, 0, 9, 589852, 0, 8, 589853, 0, 8, 589854, 0, 8, 589855, 1, 131081, 589856, 0, 8, 589857, 0, 9, 589858, 0, 9, 589859, 0, 9, 589860, 0, 8, 589861, 0, 8, 589862, 0, 8, 589863, 0, 8, 589864, 0, 9, 589865, 0, 8, 589866, 0, 8, 589867, 0, 9, 589868, 0, 9, 589869, 0, 8, 589870, 0, 8, 589871, 0, 8, 589872, 0, 8, 589873, 0, 8, 589874, 0, 9, 589875, 0, 9, 589876, 0, 8, 589877, 0, 8, 589878, 0, 9, 589879, 0, 8, 720856, 0, 8, 720857, 0, 8, 720858, 0, 9, 720859, 0, 8, 720860, 0, 9, 720861, 0, 9, 720862, 0, 9, 720863, 0, 8, 720864, 0, 8, 720865, 0, 8, 720866, 0, 9, 720867, 0, 9, 720868, 0, 8, 720869, 0, 9, 720870, 0, 8, 720871, 0, 9, 720872, 0, 8, 720873, 0, 8, 720874, 0, 8, 720875, 0, 9, 720876, 0, 9, 720877, 0, 9, 720878, 0, 8, 720879, 0, 8, 720880, 0, 9, 720881, 0, 9, 720882, 0, 9, 720883, 0, 8, 720884, 6, 458763, 720885, 6, 458764, 720886, 6, 458765, 720887, 0, 8, 720888, 0, 8, 720889, 0, 8, 720890, 0, 8, 720891, 0, 8, 720892, 0, 8, 720893, 0, 8, 720894, 0, 8, 720895, 0, 8, 655360, 1, 131080, 655361, 1, 131082, 655362, 0, 8, 655363, 0, 8, 655364, 0, 9, 655365, 0, 9, 655366, 0, 9, 655367, 0, 9, 655368, 0, 8, 655369, 0, 8, 655370, 0, 8, 655371, 1, 131080, 655372, 1, 131082, 655373, 0, 8, 655374, 0, 9, 655375, 0, 9, 655376, 0, 9, 655377, 0, 8, 655378, 0, 8, 655379, 0, 9, 655380, 0, 8, 655381, 0, 9, 655382, 0, 8, 655383, 0, 8, 655384, 0, 8, 655385, 0, 9, 655386, 0, 9, 655387, 0, 8, 655388, 0, 8, 655389, 0, 8, 655390, 0, 8, 655391, 1, 131081, 655392, 0, 8, 655393, 0, 9, 655394, 0, 9, 655395, 0, 9, 655396, 0, 9, 655397, 0, 8, 655398, 0, 8, 655399, 0, 8, 655400, 0, 9, 655401, 0, 9, 655402, 0, 8, 655403, 0, 8, 655404, 0, 8, 655405, 0, 9, 655406, 0, 9, 655407, 0, 8, 655408, 0, 8, 655409, 0, 9, 655410, 0, 9, 655411, 0, 9, 655412, 0, 9, 655413, 0, 8, 655414, 0, 9, 655415, 0, 8, 786392, 0, 8, 786393, 0, 8, 786394, 0, 9, 786395, 0, 9, 786396, 0, 9, 786397, 0, 9, 786398, 0, 9, 786399, 0, 8, 786400, 0, 8, 786401, 0, 9, 786402, 0, 8, 786403, 0, 9, 786404, 0, 9, 786405, 0, 8, 786406, 0, 9, 786407, 0, 9, 786408, 0, 8, 786409, 0, 9, 786410, 0, 8, 786411, 0, 8, 786412, 0, 9, 786413, 0, 8, 786414, 0, 8, 786415, 0, 8, 786416, 0, 8, 786417, 0, 8, 786418, 0, 8, 786419, 0, 8, 786420, 6, 458763, 786421, 6, 458764, 786422, 6, 458765, 786423, 0, 8, 786424, 0, 8, 786425, 0, 8, 786426, 1, 131081, 786427, 1, 131081, 786428, 1, 131081, 786429, 1, 131081, 786430, 1, 131081, 786431, 1, 131081, 720896, 1, 131084, 720897, 1, 196618, 720898, 0, 8, 720899, 0, 9, 720900, 0, 9, 720901, 0, 8, 720902, 0, 8, 720903, 0, 9, 720904, 0, 9, 720905, 0, 8, 720906, 0, 8, 720907, 1, 131080, 720908, 1, 131082, 720909, 0, 8, 720910, 0, 9, 720911, 0, 8, 720912, 0, 8, 720913, 0, 8, 720914, 0, 8, 720915, 0, 8, 720916, 0, 8, 720917, 0, 8, 720918, 0, 8, 720919, 0, 8, 720920, 0, 8, 720921, 0, 8, 720922, 0, 8, 720923, 0, 8, 720924, 0, 8, 720925, 0, 8, 720926, 0, 8, 720927, 1, 131081, 720928, 0, 8, 720929, 0, 8, 720930, 0, 8, 720931, 0, 8, 720932, 0, 8, 720933, 0, 8, 720934, 0, 8, 720935, 0, 8, 720936, 0, 8, 720937, 0, 8, 720938, 0, 8, 720939, 0, 8, 720940, 0, 8, 720941, 0, 8, 720942, 0, 8, 720943, 0, 9, 720944, 0, 8, 720945, 0, 9, 720946, 0, 8, 720947, 0, 8, 720948, 0, 8, 720949, 0, 9, 720950, 0, 9, 720951, 0, 8, 851928, 0, 8, 851929, 0, 9, 851930, 0, 9, 851931, 0, 9, 851932, 0, 9, 851933, 0, 9, 851934, 0, 9, 851935, 0, 8, 851936, 0, 8, 851937, 0, 8, 851938, 0, 8, 851939, 0, 8, 851940, 0, 8, 851941, 0, 9, 851942, 0, 9, 851943, 0, 9, 851944, 0, 9, 851945, 0, 8, 851946, 0, 8, 851947, 0, 8, 851948, 0, 9, 851949, 0, 8, 851950, 1, 196620, 851951, 1, 65545, 851952, 1, 65545, 851953, 1, 65545, 851954, 1, 65545, 851955, 1, 65546, 851956, 6, 458763, 851957, 6, 458764, 851958, 6, 458767, 851959, 6, 393229, 851960, 0, 8, 851961, 0, 8, 851962, 0, 8, 851963, 0, 8, 851964, 0, 8, 851965, 0, 8, 851966, 0, 8, 851967, 0, 8, 786432, 0, 8, 786433, 0, 8, 786434, 0, 8, 786435, 0, 8, 786436, 0, 8, 786437, 0, 8, 786438, 0, 9, 786439, 0, 9, 786440, 0, 8, 786441, 0, 9, 786442, 0, 8, 786443, 1, 131084, 786444, 1, 196618, 786445, 0, 8, 786446, 0, 8, 786447, 0, 8, 786448, 0, 8, 786449, 0, 8, 786450, 0, 8, 786451, 0, 8, 786452, 0, 8, 786453, 0, 8, 786454, 1, 196620, 786455, 1, 65545, 786456, 1, 65545, 786457, 1, 65545, 786458, 1, 65545, 786459, 1, 65545, 786460, 1, 65545, 786461, 1, 65545, 786462, 1, 65545, 786463, 1, 65545, 786464, 1, 65545, 786465, 1, 65545, 786466, 1, 65545, 786467, 1, 65545, 786468, 1, 65545, 786469, 1, 65545, 786470, 1, 65545, 786471, 1, 65545, 786472, 1, 65545, 786473, 1, 65545, 786474, 1, 196619, 786475, 0, 8, 786476, 0, 9, 786477, 0, 8, 786478, 0, 9, 786479, 0, 8, 786480, 0, 8, 786481, 0, 8, 786482, 0, 8, 786483, 0, 9, 786484, 0, 9, 786485, 0, 9, 786486, 0, 9, 786487, 0, 8, 917464, 0, 8, 917465, 0, 8, 917466, 0, 8, 917467, 0, 9, 917468, 0, 8, 917469, 0, 9, 917470, 0, 8, 917471, 0, 8, 917472, 0, 9, 917473, 0, 8, 917474, 0, 8, 917475, 0, 8, 917476, 0, 9, 917477, 0, 9, 917478, 0, 9, 917479, 0, 9, 917480, 0, 9, 917481, 0, 9, 917482, 0, 8, 917483, 0, 8, 917484, 0, 9, 917485, 0, 8, 917486, 1, 196616, 917487, 1, 196617, 917488, 1, 196617, 917489, 1, 196617, 917490, 1, 196617, 917491, 1, 196618, 917492, 6, 458763, 917493, 6, 458764, 917494, 6, 458764, 917495, 6, 458765, 917496, 0, 8, 917497, 0, 8, 917498, 0, 9, 917499, 0, 9, 917500, 0, 8, 917501, 0, 9, 917502, 0, 8, 917503, 0, 8, 851968, 0, 9, 851969, 0, 9, 851970, 0, 9, 851971, 0, 9, 851972, 0, 8, 851973, 0, 8, 851974, 0, 8, 851975, 0, 8, 851976, 0, 8, 851977, 0, 9, 851978, 0, 8, 851979, 0, 8, 851980, 0, 8, 851981, 0, 8, 851982, 1, 65544, 851983, 1, 65545, 851984, 1, 65545, 851985, 1, 65545, 851986, 1, 65545, 851987, 1, 65545, 851988, 1, 65545, 851989, 1, 65545, 851990, 1, 11, 851991, 1, 131081, 851992, 1, 131081, 851993, 1, 131081, 851994, 1, 131081, 851995, 1, 131081, 851996, 1, 131081, 851997, 1, 131081, 851998, 1, 131081, 851999, 1, 131081, 852000, 1, 131081, 852001, 1, 131081, 852002, 1, 131081, 852003, 1, 131081, 852004, 1, 131081, 852005, 1, 131081, 852006, 1, 131081, 852007, 1, 131081, 852008, 1, 131081, 852009, 1, 131081, 852010, 1, 131082, 852011, 0, 8, 852012, 0, 8, 852013, 0, 9, 852014, 0, 8, 852015, 0, 8, 852016, 0, 8, 852017, 0, 8, 852018, 0, 9, 852019, 0, 9, 852020, 0, 9, 852021, 0, 9, 852022, 0, 9, 852023, 0, 8, 983000, 0, 8, 983001, 0, 9, 983002, 0, 8, 983003, 0, 8, 983004, 0, 9, 983005, 0, 9, 983006, 0, 8, 983007, 0, 8, 983008, 0, 8, 983009, 0, 9, 983010, 0, 9, 983011, 0, 8, 983012, 0, 8, 983013, 0, 8, 983014, 0, 9, 983015, 0, 9, 983016, 0, 9, 983017, 0, 9, 983018, 0, 9, 983019, 0, 9, 983020, 0, 9, 983021, 0, 8, 983022, 0, 8, 983023, 1, 131081, 983024, 0, 8, 983025, 0, 8, 983026, 0, 8, 983027, 0, 8, 983028, 6, 458763, 983029, 6, 458764, 983030, 6, 458764, 983031, 6, 458765, 983032, 0, 8, 983033, 0, 8, 983034, 0, 8, 983035, 0, 8, 983036, 0, 9, 983037, 0, 8, 983038, 0, 9, 983039, 0, 9, 917504, 0, 8, 917505, 0, 8, 917506, 0, 8, 917507, 0, 8, 917508, 0, 8, 917509, 0, 9, 917510, 0, 9, 917511, 0, 9, 917512, 0, 8, 917513, 0, 9, 917514, 0, 9, 917515, 0, 8, 917516, 0, 9, 917517, 0, 8, 917518, 1, 131084, 917519, 1, 196617, 917520, 1, 196617, 917521, 1, 196617, 917522, 1, 196617, 917523, 1, 196617, 917524, 1, 196617, 917525, 1, 196617, 917526, 1, 196617, 917527, 1, 196617, 917528, 1, 196617, 917529, 1, 196617, 917530, 1, 196617, 917531, 1, 196617, 917532, 1, 196617, 917533, 1, 196617, 917534, 1, 196617, 917535, 1, 196617, 917536, 1, 196617, 917537, 1, 196617, 917538, 1, 196617, 917539, 1, 196617, 917540, 1, 196617, 917541, 1, 196617, 917542, 1, 196617, 917543, 1, 196617, 917544, 1, 196617, 917545, 1, 196617, 917546, 1, 131083, 917547, 0, 8, 917548, 0, 8, 917549, 0, 8, 917550, 0, 8, 917551, 0, 8, 917552, 0, 9, 917553, 0, 9, 917554, 0, 8, 917555, 0, 8, 917556, 0, 8, 917557, 0, 9, 917558, 0, 9, 917559, 0, 8, 1048536, 0, 8, 1048537, 0, 8, 1048538, 0, 9, 1048539, 0, 8, 1048540, 0, 9, 1048541, 0, 8, 1048542, 0, 9, 1048543, 0, 9, 1048544, 0, 8, 1048545, 0, 9, 1048546, 0, 9, 1048547, 0, 9, 1048548, 0, 9, 1048549, 0, 8, 1048550, 0, 9, 1048551, 0, 8, 1048552, 0, 8, 1048553, 0, 9, 1048554, 0, 9, 1048555, 0, 8, 1048556, 0, 8, 1048557, 0, 8, 1048558, 1, 196620, 1048559, 1, 65546, 1048560, 0, 8, 1048561, 0, 8, 1048562, 0, 9, 1048563, 0, 8, 1048564, 6, 458763, 1048565, 6, 458764, 1048566, 6, 458764, 1048567, 6, 458765, 1048568, 0, 8, 1048569, 0, 9, 1048570, 0, 9, 1048571, 0, 8, 1048572, 0, 8, 1048573, 0, 9, 1048574, 0, 8, 1048575, 0, 9, 983040, 0, 9, 983041, 0, 8, 983042, 0, 9, 983043, 0, 9, 983044, 0, 9, 983045, 0, 9, 983046, 0, 9, 983047, 0, 9, 983048, 0, 9, 983049, 0, 8, 983050, 0, 9, 983051, 0, 9, 983052, 0, 9, 983053, 0, 8, 983054, 0, 8, 983055, 0, 8, 983056, 0, 8, 983057, 0, 8, 983058, 0, 8, 983059, 0, 8, 983060, 0, 8, 983061, 0, 8, 983062, 0, 8, 983063, 0, 8, 983064, 0, 8, 983065, 0, 8, 983066, 0, 8, 983067, 0, 8, 983068, 0, 8, 983069, 0, 8, 983070, 0, 8, 983071, 0, 8, 983072, 0, 8, 983073, 0, 8, 983074, 0, 8, 983075, 0, 8, 983076, 0, 8, 983077, 0, 8, 983078, 0, 8, 983079, 0, 8, 983080, 0, 8, 983081, 0, 8, 983082, 0, 8, 983083, 0, 8, 983084, 0, 9, 983085, 0, 9, 983086, 0, 8, 983087, 0, 8, 983088, 0, 9, 983089, 0, 8, 983090, 0, 9, 983091, 0, 8, 983092, 0, 9, 983093, 0, 8, 983094, 0, 9, 983095, 0, 8, 1114072, 0, 8, 1114073, 0, 8, 1114074, 0, 8, 1114075, 0, 8, 1114076, 0, 8, 1114077, 0, 8, 1114078, 0, 8, 1114079, 0, 8, 1114080, 0, 9, 1114081, 0, 9, 1114082, 0, 9, 1114083, 0, 8, 1114084, 0, 9, 1114085, 0, 8, 1114086, 0, 9, 1114087, 0, 9, 1114088, 0, 9, 1114089, 0, 9, 1114090, 0, 8, 1114091, 0, 8, 1114092, 0, 9, 1114093, 0, 8, 1114094, 1, 131080, 1114095, 1, 131082, 1114096, 0, 8, 1114097, 0, 9, 1114098, 0, 8, 1114099, 0, 8, 1114100, 6, 458763, 1114101, 6, 458764, 1114102, 6, 458764, 1114103, 6, 458765, 1114104, 0, 8, 1114105, 0, 8, 1114106, 0, 8, 1114107, 0, 9, 1114108, 0, 8, 1114109, 0, 8, 1114110, 0, 9, 1114111, 0, 8, 1048576, 0, 9, 1048577, 0, 9, 1048578, 0, 8, 1048579, 0, 8, 1048580, 0, 9, 1048581, 0, 8, 1048582, 0, 8, 1048583, 0, 8, 1048584, 0, 8, 1048585, 0, 8, 1048586, 0, 8, 1048587, 0, 9, 1048588, 0, 9, 1048589, 0, 8, 1048590, 0, 9, 1048591, 0, 8, 1048592, 0, 8, 1048593, 0, 8, 1048594, 0, 9, 1048595, 0, 8, 1048596, 0, 9, 1048597, 0, 8, 1048598, 0, 8, 1048599, 0, 8, 1048600, 0, 9, 1048601, 0, 9, 1048602, 0, 9, 1048603, 0, 9, 1048604, 0, 8, 1048605, 0, 9, 1048606, 0, 8, 1048607, 0, 9, 1048608, 0, 9, 1048609, 0, 8, 1048610, 0, 9, 1048611, 0, 8, 1048612, 0, 8, 1048613, 0, 8, 1048614, 0, 9, 1048615, 0, 8, 1048616, 0, 8, 1048617, 0, 8, 1048618, 0, 8, 1048619, 0, 8, 1048620, 0, 8, 1048621, 0, 8, 1048622, 0, 9, 1048623, 0, 8, 1048624, 0, 8, 1048625, 0, 9, 1048626, 0, 9, 1048627, 0, 8, 1048628, 0, 8, 1048629, 0, 9, 1048630, 0, 8, 1048631, 0, 8, 1179608, 0, 8, 1179609, 0, 9, 1179610, 0, 9, 1179611, 0, 9, 1179612, 0, 8, 1179613, 0, 9, 1179614, 0, 9, 1179615, 0, 9, 1179616, 0, 9, 1179617, 0, 8, 1179618, 0, 8, 1179619, 0, 8, 1179620, 0, 8, 1179621, 0, 8, 1179622, 0, 9, 1179623, 0, 8, 1179624, 0, 9, 1179625, 0, 9, 1179626, 0, 9, 1179627, 0, 9, 1179628, 0, 8, 1179629, 0, 8, 1179630, 1, 196616, 1179631, 1, 131083, 1179632, 0, 8, 1179633, 0, 9, 1179634, 0, 9, 1179635, 0, 8, 1179636, 6, 458763, 1179637, 6, 458764, 1179638, 6, 458764, 1179639, 6, 458765, 1179640, 0, 8, 1179641, 0, 8, 1179642, 0, 8, 1179643, 0, 8, 1179644, 0, 8, 1179645, 0, 9, 1179646, 0, 9, 1179647, 0, 8, 1114112, 0, 9, 1114113, 0, 9, 1114114, 0, 9, 1114115, 0, 8, 1114116, 0, 8, 1114117, 0, 9, 1114118, 0, 9, 1114119, 0, 8, 1114120, 0, 8, 1114121, 0, 8, 1114122, 0, 8, 1114123, 0, 9, 1114124, 0, 8, 1114125, 0, 9, 1114126, 0, 8, 1114127, 0, 8, 1114128, 0, 9, 1114129, 0, 8, 1114130, 0, 8, 1114131, 0, 8, 1114132, 0, 8, 1114133, 0, 9, 1114134, 0, 9, 1114135, 0, 8, 1114136, 0, 8, 1114137, 0, 9, 1114138, 0, 8, 1114139, 0, 9, 1114140, 0, 9, 1114141, 0, 8, 1114142, 0, 8, 1114143, 0, 9, 1114144, 0, 8, 1114145, 0, 9, 1114146, 0, 8, 1114147, 0, 8, 1114148, 0, 8, 1114149, 0, 8, 1114150, 0, 8, 1114151, 0, 8, 1114152, 0, 8, 1114153, 0, 8, 1114154, 0, 9, 1114155, 0, 9, 1114156, 0, 9, 1114157, 0, 9, 1114158, 0, 8, 1114159, 0, 8, 1114160, 0, 9, 1114161, 0, 8, 1114162, 0, 8, 1114163, 0, 8, 1114164, 0, 8, 1114165, 0, 8, 1114166, 0, 9, 1114167, 0, 8, 1245144, 0, 8, 1245145, 0, 8, 1245146, 0, 9, 1245147, 0, 9, 1245148, 0, 8, 1245149, 0, 9, 1245150, 0, 8, 1245151, 0, 9, 1245152, 0, 8, 1245153, 0, 8, 1245154, 0, 9, 1245155, 0, 8, 1245156, 0, 8, 1245157, 0, 8, 1245158, 0, 9, 1245159, 0, 8, 1245160, 0, 9, 1245161, 0, 8, 1245162, 0, 8, 1245163, 0, 8, 1245164, 0, 8, 1245165, 0, 8, 1245166, 0, 8, 1245167, 0, 8, 1245168, 0, 8, 1245169, 0, 9, 1245170, 0, 8, 1245171, 0, 8, 1245172, 6, 458763, 1245173, 6, 458764, 1245174, 6, 458764, 1245175, 6, 458765, 1245176, 0, 8, 1245177, 0, 8, 1245178, 0, 9, 1245179, 0, 9, 1245180, 0, 9, 1245181, 0, 9, 1245182, 0, 8, 1245183, 0, 9, 1179648, 0, 9, 1179649, 0, 8, 1179650, 0, 9, 1179651, 0, 9, 1179652, 0, 8, 1179653, 0, 9, 1179654, 0, 8, 1179655, 0, 9, 1179656, 0, 9, 1179657, 0, 8, 1179658, 0, 9, 1179659, 0, 9, 1179660, 0, 8, 1179661, 0, 8, 1179662, 0, 8, 1179663, 0, 8, 1179664, 0, 9, 1179665, 0, 9, 1179666, 0, 9, 1179667, 0, 8, 1179668, 0, 8, 1179669, 0, 8, 1179670, 0, 9, 1179671, 0, 9, 1179672, 0, 8, 1179673, 0, 8, 1179674, 0, 9, 1179675, 0, 8, 1179676, 0, 9, 1179677, 0, 9, 1179678, 0, 9, 1179679, 0, 9, 1179680, 0, 9, 1179681, 0, 8, 1179682, 0, 9, 1179683, 0, 9, 1179684, 0, 9, 1179685, 0, 8, 1179686, 0, 8, 1179687, 0, 9, 1179688, 0, 9, 1179689, 0, 8, 1179690, 0, 9, 1179691, 0, 9, 1179692, 0, 8, 1179693, 0, 9, 1179694, 0, 8, 1179695, 0, 9, 1179696, 0, 8, 1179697, 0, 8, 1179698, 0, 8, 1179699, 0, 9, 1179700, 0, 8, 1179701, 0, 8, 1179702, 0, 8, 1179703, 0, 8, 1310680, 0, 8, 1310681, 0, 9, 1310682, 0, 9, 1310683, 0, 8, 1310684, 0, 8, 1310685, 0, 9, 1310686, 0, 9, 1310687, 0, 9, 1310688, 0, 9, 1310689, 0, 8, 1310690, 0, 8, 1310691, 0, 9, 1310692, 0, 9, 1310693, 0, 8, 1310694, 0, 8, 1310695, 0, 8, 1310696, 0, 8, 1310697, 0, 8, 1310698, 0, 8, 1310699, 1, 196620, 1310700, 1, 65545, 1310701, 1, 65545, 1310702, 1, 65546, 1310703, 0, 8, 1310704, 0, 9, 1310705, 0, 9, 1310706, 0, 9, 1310707, 0, 8, 1310708, 6, 458763, 1310709, 6, 458764, 1310710, 6, 458764, 1310711, 6, 458765, 1310712, 0, 8, 1310713, 0, 9, 1310714, 0, 9, 1310715, 0, 9, 1310716, 0, 8, 1310717, 0, 8, 1310718, 0, 8, 1310719, 0, 8, 1245184, 0, 8, 1245185, 0, 9, 1245186, 0, 9, 1245187, 0, 9, 1245188, 0, 8, 1245189, 0, 8, 1245190, 0, 9, 1245191, 0, 9, 1245192, 0, 9, 1245193, 0, 9, 1245194, 0, 9, 1245195, 0, 9, 1245196, 0, 9, 1245197, 0, 8, 1245198, 0, 8, 1245199, 0, 8, 1245200, 0, 8, 1245201, 0, 8, 1245202, 0, 8, 1245203, 0, 9, 1245204, 0, 8, 1245205, 0, 9, 1245206, 0, 8, 1245207, 0, 8, 1245208, 0, 8, 1245209, 0, 8, 1245210, 0, 9, 1245211, 0, 8, 1245212, 0, 9, 1245213, 0, 9, 1245214, 0, 8, 1245215, 0, 8, 1245216, 0, 9, 1245217, 0, 8, 1245218, 0, 8, 1245219, 0, 8, 1245220, 0, 9, 1245221, 0, 8, 1245222, 0, 9, 1245223, 0, 8, 1245224, 0, 8, 1245225, 0, 8, 1245226, 0, 9, 1245227, 0, 9, 1245228, 0, 9, 1245229, 0, 8, 1245230, 0, 8, 1245231, 0, 9, 1245232, 0, 9, 1245233, 0, 9, 1245234, 0, 9, 1245235, 0, 9, 1245236, 0, 8, 1245237, 0, 8, 1245238, 0, 9, 1245239, 0, 8, 1376216, 0, 8, 1376217, 0, 8, 1376218, 0, 8, 1376219, 0, 9, 1376220, 0, 9, 1376221, 0, 9, 1376222, 0, 8, 1376223, 0, 9, 1376224, 0, 8, 1376225, 0, 8, 1376226, 0, 9, 1376227, 0, 8, 1376228, 0, 8, 1376229, 0, 8, 1376230, 1, 131081, 1376231, 1, 131081, 1376232, 1, 131081, 1376233, 1, 131081, 1376234, 0, 8, 1376235, 1, 196616, 1376236, 1, 196617, 1376237, 1, 196617, 1376238, 1, 131083, 1376239, 0, 8, 1376240, 0, 9, 1376241, 0, 8, 1376242, 0, 8, 1376243, 0, 8, 1376244, 6, 458763, 1376245, 6, 458764, 1376246, 6, 458764, 1376247, 6, 458765, 1376248, 0, 8, 1376249, 0, 9, 1376250, 0, 8, 1376251, 0, 9, 1376252, 0, 8, 1376253, 0, 9, 1376254, 0, 9, 1376255, 0, 8, 1310720, 0, 9, 1310721, 0, 8, 1310722, 0, 8, 1310723, 0, 9, 1310724, 0, 8, 1310725, 0, 8, 1310726, 0, 9, 1310727, 0, 8, 1310728, 0, 9, 1310729, 0, 8, 1310730, 0, 9, 1310731, 0, 9, 1310732, 0, 9, 1310733, 0, 9, 1310734, 0, 9, 1310735, 0, 9, 1310736, 0, 8, 1310737, 0, 9, 1310738, 0, 8, 1310739, 0, 9, 1310740, 0, 8, 1310741, 0, 9, 1310742, 0, 8, 1310743, 0, 8, 1310744, 0, 9, 1310745, 0, 9, 1310746, 0, 8, 1310747, 0, 8, 1310748, 0, 9, 1310749, 0, 8, 1310750, 0, 8, 1310751, 0, 8, 1310752, 0, 9, 1310753, 0, 8, 1310754, 0, 9, 1310755, 0, 8, 1310756, 0, 8, 1310757, 0, 9, 1310758, 0, 8, 1310759, 0, 8, 1310760, 0, 9, 1310761, 0, 8, 1310762, 0, 8, 1310763, 0, 9, 1310764, 0, 8, 1310765, 0, 8, 1310766, 0, 9, 1310767, 0, 9, 1310768, 0, 9, 1310769, 0, 8, 1310770, 0, 9, 1310771, 0, 8, 1310772, 0, 8, 1310773, 0, 9, 1310774, 0, 8, 1310775, 0, 8, 1441752, 0, 8, 1441753, 0, 8, 1441754, 0, 8, 1441755, 0, 9, 1441756, 0, 8, 1441757, 0, 8, 1441758, 0, 9, 1441759, 0, 8, 1441760, 0, 9, 1441761, 0, 9, 1441762, 0, 8, 1441763, 0, 9, 1441764, 0, 9, 1441765, 0, 8, 1441766, 0, 8, 1441767, 0, 8, 1441768, 0, 8, 1441769, 0, 8, 1441770, 0, 8, 1441771, 0, 8, 1441772, 0, 8, 1441773, 0, 8, 1441774, 0, 8, 1441775, 0, 8, 1441776, 0, 8, 1441777, 0, 8, 1441778, 6, 393227, 1441779, 6, 393228, 1441780, 6, 458766, 1441781, 6, 458764, 1441782, 6, 458764, 1441783, 6, 458765, 1441784, 0, 8, 1441785, 0, 8, 1441786, 0, 9, 1441787, 0, 9, 1441788, 0, 8, 1441789, 0, 8, 1441790, 0, 9, 1441791, 0, 8, 1376256, 0, 8, 1376257, 0, 8, 1376258, 0, 9, 1376259, 0, 8, 1376260, 0, 9, 1376261, 0, 9, 1376262, 0, 9, 1376263, 0, 8, 1376264, 0, 8, 1376265, 0, 9, 1376266, 0, 9, 1376267, 0, 9, 1376268, 0, 9, 1376269, 0, 9, 1376270, 0, 8, 1376271, 0, 8, 1376272, 0, 8, 1376273, 0, 8, 1376274, 0, 9, 1376275, 0, 8, 1376276, 0, 8, 1376277, 0, 9, 1376278, 0, 9, 1376279, 0, 8, 1376280, 0, 8, 1376281, 0, 8, 1376282, 0, 9, 1376283, 0, 8, 1376284, 0, 9, 1376285, 0, 9, 1376286, 0, 8, 1376287, 0, 8, 1376288, 0, 9, 1376289, 0, 8, 1376290, 0, 9, 1376291, 0, 8, 1376292, 0, 9, 1376293, 0, 9, 1376294, 0, 9, 1376295, 0, 8, 1376296, 0, 8, 1376297, 0, 9, 1376298, 0, 9, 1376299, 0, 8, 1376300, 0, 9, 1376301, 0, 8, 1376302, 0, 9, 1376303, 0, 8, 1376304, 0, 8, 1376305, 0, 9, 1376306, 0, 8, 1376307, 0, 8, 1376308, 0, 8, 1376309, 0, 9, 1376310, 0, 9, 1376311, 0, 8, 1507288, 0, 8, 1507289, 0, 9, 1507290, 0, 8, 1507291, 0, 8, 1507292, 0, 9, 1507293, 0, 9, 1507294, 0, 9, 1507295, 0, 9, 1507296, 0, 9, 1507297, 0, 8, 1507298, 0, 9, 1507299, 0, 9, 1507300, 0, 8, 1507301, 0, 8, 1507302, 0, 8, 1507303, 0, 9, 1507304, 0, 8, 1507305, 0, 8, 1507306, 0, 9, 1507307, 0, 8, 1507308, 0, 8, 1507309, 0, 9, 1507310, 0, 9, 1507311, 0, 8, 1507312, 0, 8, 1507313, 0, 8, 1507314, 6, 458763, 1507315, 6, 458764, 1507316, 6, 458764, 1507317, 6, 458764, 1507318, 6, 458764, 1507319, 6, 458765, 1507320, 0, 8, 1507321, 0, 9, 1507322, 0, 8, 1507323, 0, 8, 1507324, 0, 9, 1507325, 0, 8, 1507326, 0, 8, 1507327, 0, 8, 1441792, 0, 8, 1441793, 0, 9, 1441794, 0, 9, 1441795, 0, 8, 1441796, 0, 9, 1441797, 0, 8, 1441798, 0, 9, 1441799, 0, 8, 1441800, 0, 8, 1441801, 0, 9, 1441802, 0, 8, 1441803, 0, 8, 1441804, 0, 8, 1441805, 0, 8, 1441806, 0, 8, 1441807, 0, 8, 1441808, 0, 8, 1441809, 0, 8, 1441810, 0, 8, 1441811, 0, 9, 1441812, 0, 8, 1441813, 0, 8, 1441814, 0, 8, 1441815, 0, 8, 1441816, 0, 8, 1441817, 0, 8, 1441818, 0, 8, 1441819, 0, 9, 1441820, 0, 8, 1441821, 0, 8, 1441822, 0, 8, 1441823, 0, 8, 1441824, 0, 9, 1441825, 0, 8, 1441826, 0, 9, 1441827, 0, 8, 1441828, 0, 9, 1441829, 0, 9, 1441830, 0, 8, 1441831, 0, 8, 1441832, 0, 9, 1441833, 0, 9, 1441834, 0, 8, 1441835, 0, 8, 1441836, 0, 8, 1441837, 0, 9, 1441838, 0, 8, 1441839, 0, 8, 1441840, 0, 8, 1441841, 0, 8, 1441842, 0, 9, 1441843, 0, 9, 1441844, 0, 9, 1441845, 0, 8, 1441846, 0, 9, 1441847, 0, 8, 1572824, 0, 8, 1572825, 0, 9, 1572826, 0, 9, 1572827, 0, 9, 1572828, 0, 9, 1572829, 0, 8, 1572830, 0, 9, 1572831, 0, 8, 1572832, 0, 9, 1572833, 0, 8, 1572834, 0, 8, 1572835, 0, 9, 1572836, 0, 9, 1572837, 0, 9, 1572838, 0, 8, 1572839, 0, 9, 1572840, 0, 8, 1572841, 0, 9, 1572842, 0, 8, 1572843, 0, 8, 1572844, 0, 8, 1572845, 0, 8, 1572846, 0, 8, 1572847, 0, 8, 1572848, 0, 9, 1572849, 0, 8, 1572850, 6, 458763, 1572851, 6, 458764, 1572852, 6, 458764, 1572853, 6, 524303, 1572854, 6, 524300, 1572855, 6, 524301, 1572856, 0, 8, 1572857, 0, 8, 1572858, 0, 8, 1572859, 0, 8, 1572860, 0, 8, 1572861, 0, 8, 1572862, 0, 9, 1572863, 0, 8, 1507328, 0, 9, 1507329, 0, 9, 1507330, 0, 8, 1507331, 0, 9, 1507332, 0, 9, 1507333, 0, 8, 1507334, 0, 8, 1507335, 0, 8, 1507336, 0, 9, 1507337, 0, 9, 1507338, 0, 9, 1507339, 0, 8, 1507340, 0, 9, 1507341, 0, 9, 1507342, 0, 8, 1507343, 0, 9, 1507344, 0, 9, 1507345, 0, 8, 1507346, 0, 9, 1507347, 0, 9, 1507348, 0, 9, 1507349, 0, 8, 1507350, 0, 8, 1507351, 0, 8, 1507352, 0, 8, 1507353, 0, 9, 1507354, 0, 8, 1507355, 0, 9, 1507356, 0, 8, 1507357, 0, 9, 1507358, 0, 8, 1507359, 0, 8, 1507360, 0, 8, 1507361, 0, 9, 1507362, 0, 8, 1507363, 0, 9, 1507364, 0, 8, 1507365, 0, 8, 1507366, 0, 9, 1507367, 0, 9, 1507368, 0, 9, 1507369, 0, 9, 1507370, 0, 8, 1507371, 0, 8, 1507372, 0, 9, 1507373, 0, 8, 1507374, 0, 8, 1507375, 0, 8, 1507376, 0, 8, 1507377, 0, 8, 1507378, 0, 9, 1507379, 0, 9, 1507380, 0, 9, 1507381, 0, 9, 1507382, 0, 8, 1507383, 0, 8, 1638360, 0, 8, 1638361, 0, 9, 1638362, 0, 9, 1638363, 0, 8, 1638364, 0, 8, 1638365, 0, 8, 1638366, 0, 8, 1638367, 0, 9, 1638368, 0, 9, 1638369, 0, 8, 1638370, 0, 9, 1638371, 0, 9, 1638372, 0, 8, 1638373, 0, 9, 1638374, 0, 8, 1638375, 0, 8, 1638376, 0, 9, 1638377, 0, 8, 1638378, 0, 9, 1638379, 0, 8, 1638380, 0, 9, 1638381, 0, 9, 1638382, 0, 8, 1638383, 0, 9, 1638384, 0, 9, 1638385, 0, 8, 1638386, 6, 458763, 1638387, 6, 458764, 1638388, 6, 458764, 1638389, 6, 458765, 1638390, 0, 8, 1638391, 0, 8, 1638392, 0, 8, 1638393, 0, 8, 1638394, 0, 8, 1638395, 0, 9, 1638396, 0, 9, 1638397, 0, 8, 1638398, 0, 9, 1638399, 0, 9, 1572864, 0, 9, 1572865, 0, 8, 1572866, 0, 9, 1572867, 0, 9, 1572868, 0, 9, 1572869, 0, 9, 1572870, 0, 8, 1572871, 0, 8, 1572872, 0, 8, 1572873, 0, 8, 1572874, 0, 9, 1572875, 0, 9, 1572876, 0, 9, 1572877, 0, 9, 1572878, 0, 8, 1572879, 0, 8, 1572880, 0, 9, 1572881, 0, 8, 1572882, 0, 8, 1572883, 0, 8, 1572884, 0, 9, 1572885, 0, 8, 1572886, 0, 9, 1572887, 0, 8, 1572888, 0, 8, 1572889, 0, 8, 1572890, 0, 9, 1572891, 0, 9, 1572892, 0, 9, 1572893, 0, 8, 1572894, 0, 8, 1572895, 0, 9, 1572896, 0, 9, 1572897, 0, 8, 1572898, 0, 9, 1572899, 0, 9, 1572900, 0, 8, 1572901, 0, 8, 1572902, 0, 8, 1572903, 0, 9, 1572904, 0, 8, 1572905, 0, 9, 1572906, 0, 8, 1572907, 0, 8, 1572908, 0, 9, 1572909, 0, 8, 1572910, 0, 9, 1572911, 0, 9, 1572912, 0, 9, 1572913, 0, 8, 1572914, 0, 9, 1572915, 0, 9, 1572916, 0, 8, 1572917, 0, 9, 1572918, 0, 9, 1572919, 0, 8, 1703896, 0, 8, 1703897, 0, 8, 1703898, 0, 8, 1703899, 0, 9, 1703900, 0, 9, 1703901, 0, 9, 1703902, 0, 8, 1703903, 0, 9, 1703904, 0, 9, 1703905, 0, 9, 1703906, 0, 9, 1703907, 0, 8, 1703908, 0, 8, 1703909, 0, 8, 1703910, 0, 8, 1703911, 0, 9, 1703912, 0, 8, 1703913, 0, 9, 1703914, 0, 8, 1703915, 0, 9, 1703916, 0, 9, 1703917, 0, 8, 1703918, 0, 9, 1703919, 0, 8, 1703920, 0, 9, 1703921, 0, 8, 1703922, 6, 458763, 1703923, 6, 458764, 1703924, 6, 458764, 1703925, 6, 458765, 1703926, 0, 8, 1703927, 0, 8, 1703928, 0, 9, 1703929, 0, 9, 1703930, 0, 8, 1703931, 0, 8, 1703932, 0, 8, 1703933, 0, 8, 1703934, 0, 8, 1703935, 0, 8, 1638400, 0, 9, 1638401, 0, 9, 1638402, 0, 9, 1638403, 0, 9, 1638404, 0, 8, 1638405, 0, 8, 1638406, 0, 8, 1638407, 0, 9, 1638408, 0, 9, 1638409, 0, 8, 1638410, 0, 8, 1638411, 0, 9, 1638412, 0, 8, 1638413, 0, 9, 1638414, 0, 8, 1638415, 0, 9, 1638416, 0, 8, 1638417, 0, 8, 1638418, 0, 9, 1638419, 0, 9, 1638420, 0, 9, 1638421, 0, 9, 1638422, 0, 8, 1638423, 0, 9, 1638424, 0, 9, 1638425, 0, 8, 1638426, 0, 9, 1638427, 0, 8, 1638428, 0, 9, 1638429, 0, 8, 1638430, 0, 8, 1638431, 0, 8, 1638432, 0, 9, 1638433, 0, 8, 1638434, 0, 9, 1638435, 0, 8, 1638436, 0, 9, 1638437, 0, 9, 1638438, 0, 8, 1638439, 0, 9, 1638440, 0, 9, 1638441, 0, 9, 1638442, 0, 8, 1638443, 0, 9, 1638444, 0, 9, 1638445, 0, 8, 1638446, 0, 9, 1638447, 0, 9, 1638448, 0, 9, 1638449, 0, 9, 1638450, 0, 9, 1638451, 0, 8, 1638452, 0, 9, 1638453, 0, 8, 1638454, 0, 8, 1638455, 0, 8, 1769432, 0, 8, 1769433, 0, 8, 1769434, 0, 8, 1769435, 0, 8, 1769436, 0, 9, 1769437, 0, 9, 1769438, 0, 8, 1769439, 0, 8, 1769440, 0, 9, 1769441, 0, 8, 1769442, 0, 9, 1769443, 0, 9, 1769444, 0, 9, 1769445, 0, 8, 1769446, 0, 8, 1769447, 0, 9, 1769448, 0, 8, 1769449, 0, 9, 1769450, 0, 8, 1769451, 0, 8, 1769452, 0, 8, 1769453, 0, 8, 1769454, 0, 9, 1769455, 0, 8, 1769456, 0, 8, 1769457, 0, 8, 1769458, 6, 458763, 1769459, 6, 458764, 1769460, 6, 458764, 1769461, 6, 458765, 1769462, 0, 8, 1769463, 0, 9, 1769464, 0, 9, 1769465, 0, 9, 1769466, 0, 8, 1769467, 0, 9, 1769468, 0, 8, 1769469, 0, 8, 1769470, 0, 9, 1769471, 0, 9, 1703936, 0, 8, 1703937, 0, 8, 1703938, 0, 9, 1703939, 0, 9, 1703940, 0, 8, 1703941, 0, 9, 1703942, 0, 9, 1703943, 0, 9, 1703944, 0, 8, 1703945, 0, 8, 1703946, 0, 8, 1703947, 0, 9, 1703948, 0, 8, 1703949, 0, 9, 1703950, 0, 8, 1703951, 0, 9, 1703952, 0, 8, 1703953, 0, 9, 1703954, 0, 8, 1703955, 0, 9, 1703956, 0, 9, 1703957, 0, 9, 1703958, 0, 9, 1703959, 0, 9, 1703960, 0, 8, 1703961, 0, 8, 1703962, 0, 9, 1703963, 0, 8, 1703964, 0, 9, 1703965, 0, 9, 1703966, 0, 8, 1703967, 0, 9, 1703968, 0, 8, 1703969, 0, 9, 1703970, 0, 8, 1703971, 0, 9, 1703972, 0, 9, 1703973, 0, 9, 1703974, 0, 8, 1703975, 0, 8, 1703976, 0, 8, 1703977, 0, 9, 1703978, 0, 8, 1703979, 0, 9, 1703980, 0, 9, 1703981, 0, 9, 1703982, 0, 8, 1703983, 0, 9, 1703984, 0, 9, 1703985, 0, 8, 1703986, 0, 8, 1703987, 0, 8, 1703988, 0, 8, 1703989, 0, 9, 1703990, 0, 8, 1703991, 0, 8, 1834968, 0, 8, 1834969, 0, 9, 1834970, 0, 9, 1834971, 0, 8, 1834972, 0, 9, 1834973, 0, 9, 1834974, 0, 8, 1834975, 0, 8, 1834976, 0, 8, 1834977, 0, 9, 1834978, 0, 8, 1834979, 0, 8, 1834980, 0, 8, 1834981, 0, 9, 1834982, 0, 8, 1834983, 0, 8, 1834984, 0, 9, 1834985, 0, 9, 1834986, 0, 8, 1834987, 0, 9, 1834988, 0, 8, 1834989, 0, 8, 1834990, 0, 8, 1834991, 0, 8, 1834992, 0, 9, 1834993, 0, 8, 1834994, 6, 458763, 1834995, 6, 458764, 1834996, 6, 458764, 1834997, 6, 458765, 1834998, 0, 8, 1834999, 0, 9, 1835000, 0, 9, 1835001, 0, 8, 1835002, 0, 9, 1835003, 0, 9, 1835004, 0, 9, 1835005, 0, 8, 1835006, 0, 9, 1835007, 0, 8, 1769472, 0, 9, 1769473, 0, 9, 1769474, 0, 9, 1769475, 0, 8, 1769476, 0, 9, 1769477, 0, 8, 1769478, 0, 9, 1769479, 0, 9, 1769480, 0, 9, 1769481, 0, 8, 1769482, 0, 9, 1769483, 0, 8, 1769484, 0, 8, 1769485, 0, 9, 1769486, 0, 9, 1769487, 0, 9, 1769488, 0, 8, 1769489, 0, 8, 1769490, 0, 8, 1769491, 0, 8, 1769492, 0, 8, 1769493, 0, 9, 1769494, 0, 9, 1769495, 0, 9, 1769496, 0, 9, 1769497, 0, 9, 1769498, 0, 9, 1769499, 0, 9, 1769500, 0, 9, 1769501, 0, 9, 1769502, 0, 8, 1769503, 0, 8, 1769504, 0, 8, 1769505, 0, 9, 1769506, 0, 8, 1769507, 0, 9, 1769508, 0, 9, 1769509, 0, 8, 1769510, 0, 8, 1769511, 0, 9, 1769512, 0, 8, 1769513, 0, 9, 1769514, 0, 8, 1769515, 0, 8, 1769516, 0, 9, 1769517, 0, 9, 1769518, 0, 8, 1769519, 0, 8, 1769520, 0, 8, 1769521, 0, 8, 1769522, 0, 9, 1769523, 0, 9, 1769524, 0, 9, 1769525, 0, 8, 1769526, 0, 9, 1769527, 0, 8, 1900504, 0, 8, 1900505, 0, 8, 1900506, 0, 8, 1900507, 0, 8, 1900508, 0, 8, 1900509, 0, 9, 1900510, 0, 9, 1900511, 0, 8, 1900512, 0, 9, 1900513, 0, 9, 1900514, 0, 9, 1900515, 0, 9, 1900516, 0, 9, 1900517, 0, 8, 1900518, 0, 8, 1900519, 0, 8, 1900520, 0, 8, 1900521, 0, 9, 1900522, 0, 9, 1900523, 0, 9, 1900524, 0, 9, 1900525, 0, 8, 1900526, 0, 9, 1900527, 0, 9, 1900528, 0, 9, 1900529, 0, 8, 1900530, 6, 458763, 1900531, 6, 458764, 1900532, 6, 458764, 1900533, 6, 458765, 1900534, 0, 8, 1900535, 0, 9, 1900536, 0, 9, 1900537, 0, 8, 1900538, 0, 8, 1900539, 0, 8, 1900540, 0, 8, 1900541, 0, 9, 1900542, 0, 8, 1900543, 0, 8, 1835008, 0, 8, 1835009, 0, 9, 1835010, 0, 8, 1835011, 0, 8, 1835012, 0, 8, 1835013, 0, 9, 1835014, 0, 9, 1835015, 0, 9, 1835016, 0, 9, 1835017, 0, 9, 1835018, 0, 8, 1835019, 0, 9, 1835020, 0, 8, 1835021, 0, 9, 1835022, 0, 8, 1835023, 0, 9, 1835024, 0, 9, 1835025, 0, 9, 1835026, 0, 8, 1835027, 0, 8, 1835028, 0, 8, 1835029, 0, 8, 1835030, 0, 9, 1835031, 0, 9, 1835032, 0, 9, 1835033, 0, 9, 1835034, 0, 8, 1835035, 0, 8, 1835036, 0, 9, 1835037, 0, 9, 1835038, 0, 9, 1835039, 0, 9, 1835040, 0, 8, 1835041, 0, 8, 1835042, 0, 8, 1835043, 0, 9, 1835044, 0, 9, 1835045, 0, 9, 1835046, 0, 9, 1835047, 0, 8, 1835048, 0, 9, 1835049, 0, 8, 1835050, 0, 9, 1835051, 0, 9, 1835052, 0, 8, 1835053, 0, 8, 1835054, 0, 8, 1835055, 0, 9, 1835056, 0, 9, 1835057, 0, 9, 1835058, 0, 9, 1835059, 0, 8, 1835060, 0, 9, 1835061, 0, 8, 1835062, 0, 9, 1835063, 0, 8, 1966040, 0, 8, 1966041, 0, 8, 1966042, 0, 8, 1966043, 0, 8, 1966044, 0, 8, 1966045, 0, 8, 1966046, 0, 8, 1966047, 0, 8, 1966048, 0, 8, 1966049, 0, 8, 1966050, 0, 8, 1966051, 0, 8, 1966052, 0, 8, 1966053, 0, 8, 1966054, 0, 8, 1966055, 0, 8, 1966056, 0, 8, 1966057, 0, 8, 1966058, 0, 8, 1966059, 0, 8, 1966060, 0, 8, 1966061, 0, 8, 1966062, 0, 8, 1966063, 0, 8, 1966064, 0, 8, 1966065, 0, 8, 1966066, 6, 458763, 1966067, 6, 458764, 1966068, 6, 458764, 1966069, 6, 458765, 1966070, 0, 8, 1966071, 0, 8, 1966072, 0, 8, 1966073, 0, 8, 1966074, 0, 8, 1966075, 0, 8, 1966076, 0, 8, 1966077, 0, 8, 1966078, 0, 8, 1966079, 0, 8, 1900544, 0, 8, 1900545, 0, 8, 1900546, 0, 8, 1900547, 0, 8, 1900548, 0, 8, 1900549, 0, 8, 1900550, 0, 8, 1900551, 0, 8, 1900552, 0, 8, 1900553, 0, 8, 1900554, 0, 8, 1900555, 0, 8, 1900556, 0, 8, 1900557, 0, 8, 1900558, 0, 8, 1900559, 0, 8, 1900560, 0, 8, 1900561, 0, 8, 1900562, 0, 8, 1900563, 0, 8, 1900564, 0, 8, 1900565, 0, 8, 1900566, 0, 8, 1900567, 0, 8, 1900568, 0, 8, 1900569, 0, 8, 1900570, 0, 8, 1900571, 0, 8, 1900572, 0, 8, 1900573, 0, 8, 1900574, 0, 8, 1900575, 0, 8, 1900576, 0, 8, 1900577, 0, 8, 1900578, 0, 8, 1900579, 0, 8, 1900580, 0, 8, 1900581, 0, 8, 1900582, 0, 8, 1900583, 0, 8, 1900584, 0, 8, 1900585, 0, 8, 1900586, 0, 8, 1900587, 0, 8, 1900588, 0, 8, 1900589, 0, 8, 1900590, 0, 8, 1900591, 0, 8, 1900592, 0, 8, 1900593, 0, 8, 1900594, 0, 8, 1900595, 0, 8, 1900596, 0, 8, 1900597, 0, 8, 1900598, 0, 8, 1900599, 0, 8, 2031602, 6, 524299, 2031603, 6, 524300, 2031604, 6, 524300, 2031605, 6, 524301 )


