[gd_scene load_steps=4 format=2]

[ext_resource path="res://World/characters/NPCs/NPCBase.tscn" type="PackedScene" id=1]
[ext_resource path="res://World/map/tilemap.png" type="Texture" id=2]
[ext_resource path="res://World/characters/NPCs/Trash/Interact.gd" type="Script" id=3]

[node name="Trash" index="0" instance=ExtResource( 1 )]

[node name="Sprite" parent="." index="0"]

editor/display_folded = true
texture = ExtResource( 2 )
frame = 1
region_enabled = true
region_rect = Rect2( 80, 112, 32, 32 )
_sections_unfolded = [ "Animation", "Region", "Transform" ]

[node name="CollisionPolygon2D" parent="." index="1"]

polygon = PoolVector2Array( -0.873844, -7.55563, -14.7607, -4.43817, -14.5718, 6.42572, 0.921059, 8.40956, 15.8471, 1.22995, 13.013, -5.76073 )

[node name="Interact" parent="." index="2"]

script = ExtResource( 3 )

[node name="Empty" type="Sprite" parent="." index="4"]

visible = false
position = Vector2( 0, -7 )
texture = ExtResource( 2 )
region_enabled = true
region_rect = Rect2( 80, 144, 32, 32 )
_sections_unfolded = [ "Region", "Transform" ]


