[gd_scene load_steps=7 format=2]

[ext_resource path="res://World/characters/NPCs/Crow/Nest/Nest.gd" type="Script" id=1]
[ext_resource path="res://World/characters/NPCs/Crow/Nest/Interact.gd" type="Script" id=2]
[ext_resource path="res://World/map/tilemap.png" type="Texture" id=3]

[sub_resource type="RectangleShape2D" id=1]

custom_solver_bias = 0.0
extents = Vector2( 10, 10 )

[sub_resource type="Animation" id=2]

resource_name = "idle"
length = 1.0
loop = false
step = 0.1

[sub_resource type="CircleShape2D" id=3]

custom_solver_bias = 0.0
radius = 10.0

[node name="Nest" type="KinematicBody2D" index="0"]

input_pickable = false
collision_layer = 1
collision_mask = 1
collision/safe_margin = 0.08
script = ExtResource( 1 )

[node name="Interact" type="Control" parent="." index="0"]

anchor_left = 0.0
anchor_top = 0.0
anchor_right = 0.0
anchor_bottom = 0.0
margin_right = 40.0
margin_bottom = 40.0
rect_pivot_offset = Vector2( 0, 0 )
rect_clip_content = false
mouse_filter = 0
mouse_default_cursor_shape = 0
size_flags_horizontal = 1
size_flags_vertical = 1
script = ExtResource( 2 )

[node name="CollisionShape2D" type="CollisionShape2D" parent="." index="1"]

position = Vector2( 0, -30 )
shape = SubResource( 1 )
disabled = true
_sections_unfolded = [ "Transform" ]

[node name="Sprite" type="Sprite" parent="." index="2"]

visible = false
texture = ExtResource( 3 )
offset = Vector2( 0, -30 )
region_enabled = true
region_rect = Rect2( 96.75, 34.25, 15.5, 13.75 )
_sections_unfolded = [ "Animation", "Offset", "Region" ]

[node name="AnimationPlayer" type="AnimationPlayer" parent="Sprite" index="0"]

root_node = NodePath("..")
autoplay = ""
playback_process_mode = 1
playback_default_blend_time = 0.0
playback_speed = 1.0
anims/idle = SubResource( 2 )
blend_times = [  ]

[node name="Area2D" type="Area2D" parent="." index="3"]

input_pickable = true
gravity_vec = Vector2( 0, 1 )
gravity = 98.0
linear_damp = 0.1
angular_damp = 1.0
audio_bus_override = false
audio_bus_name = "Master"

[node name="CollisionShape2D" type="CollisionShape2D" parent="Area2D" index="0"]

position = Vector2( 0.243478, -17.391 )
scale = Vector2( 2.51826, 2.75359 )
shape = SubResource( 3 )
_sections_unfolded = [ "Transform" ]

[connection signal="body_exited" from="Area2D" to="." method="enableCollision"]


